<?xml version="1.0" encoding="UTF-8" standalone="no"?>
<!-- Created with Inkscape (http://www.inkscape.org/) -->

<svg
   width="351.33701mm"
   height="90.171288mm"
   viewBox="0 0 351.33701 90.17129"
   version="1.1"
   id="svg561"
   inkscape:version="1.3 (1:1.3+202307231459+0e150ed6c4)"
   sodipodi:docname="akademy2024-word-logo.svg"
   xmlns:inkscape="http://www.inkscape.org/namespaces/inkscape"
   xmlns:sodipodi="http://sodipodi.sourceforge.net/DTD/sodipodi-0.dtd"
   xmlns="http://www.w3.org/2000/svg"
   xmlns:svg="http://www.w3.org/2000/svg">
  <sodipodi:namedview
     id="namedview563"
     pagecolor="#505050"
     bordercolor="#eeeeee"
     borderopacity="1"
     inkscape:showpageshadow="0"
     inkscape:pageopacity="0"
     inkscape:pagecheckerboard="0"
     inkscape:deskcolor="#505050"
     inkscape:document-units="mm"
     showgrid="false"
     inkscape:zoom="0.5680129"
     inkscape:cx="675.16072"
     inkscape:cy="325.69683"
     inkscape:window-width="3840"
     inkscape:window-height="2076"
     inkscape:window-x="0"
     inkscape:window-y="0"
     inkscape:window-maximized="1"
     inkscape:current-layer="g1037"
     showguides="true" />
  <defs
     id="defs558" />
  <g
     inkscape:label="Layer 1"
     inkscape:groupmode="layer"
     id="layer1"
     transform="translate(-73.078004,-80.910996)">
    <g
       id="g1095"
       transform="translate(10.999921,2.8231491)">
      <g
         id="g12442"
         transform="matrix(6.5502073,0,0,6.5502073,-423.11683,-584.1869)">
        <path
           id="rect12438"
           style="fill:#4ebbe4;stroke-width:0.00610443;stroke-linecap:round;stroke-miterlimit:4.9;stroke-dasharray:0.0183133, 0.0183133"
           d="m 80.870409,110.73934 -2.792332,3.70307 v 1.5e-4 h 10.159107 l -2.792411,-3.70322 z" />
        <path
           id="path12440"
           style="fill:#112932;fill-opacity:1;stroke-width:0.0103241;stroke-linecap:round;stroke-miterlimit:4.9;stroke-dasharray:0.0309722, 0.0309722"
           d="m 83.157539,101.53845 -7.405,9.82033 2.32537,3.08384 5.07965,-6.73648 5.07962,6.73646 2.32537,-3.08382 z" />
      </g>
      <g
         id="g1037">
        <text
           xml:space="preserve"
           style="font-style:normal;font-variant:normal;font-weight:bold;font-stretch:condensed;font-size:55.7896px;line-height:125%;font-family:'Noto Sans';-inkscape-font-specification:'Noto Sans, Bold Condensed';font-variant-ligatures:normal;font-variant-caps:normal;font-variant-numeric:normal;font-variant-east-asian:normal;text-align:center;letter-spacing:0px;word-spacing:0px;writing-mode:lr-tb;text-anchor:middle;fill:#112932;fill-opacity:1;stroke:none;stroke-width:0.264583px;stroke-linecap:butt;stroke-linejoin:miter;stroke-opacity:1"
           x="292.50281"
           y="144.87921"
           id="text290"><tspan
             sodipodi:role="line"
             id="tspan288"
             style="font-style:normal;font-variant:normal;font-weight:bold;font-stretch:condensed;font-size:55.7896px;font-family:'Noto Sans';-inkscape-font-specification:'Noto Sans, Bold Condensed';font-variant-ligatures:normal;font-variant-caps:normal;font-variant-numeric:normal;font-variant-east-asian:normal;fill:#112932;fill-opacity:1;stroke:none;stroke-width:0.264583px"
             x="298.16544"
             y="144.87921">Akademy </tspan></text>
        <text
           xml:space="preserve"
           style="font-style:normal;font-variant:normal;font-weight:500;font-stretch:normal;font-size:23.1088px;line-height:125%;font-family:'Noto Sans';-inkscape-font-specification:'Noto Sans, Medium';font-variant-ligatures:normal;font-variant-caps:normal;font-variant-numeric:normal;font-variant-east-asian:normal;text-align:center;letter-spacing:0px;word-spacing:0px;writing-mode:lr-tb;text-anchor:middle;fill:#112932;fill-opacity:1;stroke:none;stroke-width:0.264583px;stroke-linecap:butt;stroke-linejoin:miter;stroke-opacity:1"
           x="377.18039"
           y="109.41047"
           id="text605"><tspan
             sodipodi:role="line"
             id="tspan603"
             style="font-style:normal;font-variant:normal;font-weight:500;font-stretch:normal;font-size:23.1088px;font-family:'Noto Sans';-inkscape-font-specification:'Noto Sans, Medium';font-variant-ligatures:normal;font-variant-caps:normal;font-variant-numeric:normal;font-variant-east-asian:normal;fill:#112932;fill-opacity:1;stroke:none;stroke-width:0.264583px"
             x="377.18039"
             y="109.41047">2024</tspan></text>
      </g>
    </g>
  </g>
</svg>
