<svg
   width="1080"
   height="1080"
   viewBox="0 0 285.74999 285.75"
   version="1.1"
   id="svg5"
   xml:space="preserve"
   xmlns="http://www.w3.org/2000/svg"
   xmlns:svg="http://www.w3.org/2000/svg">
<style>
    path {
        fill: black;
        stroke: black;
        stroke-width:0.37306249;
        fill-opacity:1;
        stroke-opacity:1;
        stroke-dasharray:none;
    }
    @media (prefers-color-scheme: dark) {
         path {
             fill: white;
             stroke: white;
             stroke-width:0.37306249;
             fill-opacity:1;
             stroke-opacity:1;
             stroke-dasharray:none;
         }
   }
</style>
       
<path d="m 129.77505,276.84867 c -3.75624,-0.34742 -4.00505,-0.39764 -5.48475,-1.10676 -1.73732,-0.83259 -2.57315,-1.4822 -3.22177,-2.50392 -0.76719,-1.20852 -0.7086,-1.94885 0.26905,-3.39956 1.39365,-2.06794 3.76229,-5.07601 7.31851,-9.29418 2.24949,-2.6682 2.68191,-3.30602 3.35102,-4.94287 1.23582,-3.02321 3.01218,-5.62145 5.69001,-8.32269 2.23091,-2.25047 3.782,-3.2582 6.8833,-4.47208 2.24398,-0.87832 3.96132,-1.27998 5.49227,-1.28456 0.99606,-0.002 1.1654,-0.0682 2.05176,-0.78826 2.21659,-1.80125 4.60329,-4.36707 4.60329,-4.94885 0,-0.0902 -1.32134,-0.49487 -2.93632,-0.89902 -1.61497,-0.40414 -3.0718,-0.86962 -3.23741,-1.03449 -0.18672,-0.18586 -0.80832,-0.34966 -1.63665,-0.43128 l -1.33554,-0.13145 0.46946,0.46943 c 0.56797,0.56797 0.59733,1.05888 0.0909,1.51731 -0.35619,0.32234 -0.54687,0.32944 -3.21753,0.11987 -3.7545,-0.29459 -3.66673,-0.28345 -5.89185,-0.74787 l -1.93379,-0.40363 -1.36475,0.88634 c -0.75063,0.48751 -1.76467,1.12518 -2.25342,1.41707 l -0.88868,0.53074 0.78877,0.65519 c 1.55796,1.2941 1.88818,2.84087 1.43982,6.74434 -0.5424,4.72233 -1.21048,6.51938 -3.11811,8.38728 -3.78295,3.70419 -11.06324,5.9477 -15.52744,4.78492 -1.38915,-0.36184 -1.96863,-0.78268 -2.74674,-1.99484 -0.55836,-0.86982 -0.63419,-1.1453 -0.6926,-2.51595 -0.0668,-1.56766 0.30042,-4.31155 0.83121,-6.21075 0.1577,-0.56424 0.80101,-2.19726 1.42958,-3.62891 1.02269,-2.32931 1.27948,-2.74684 2.44187,-3.97056 1.05451,-1.1101 1.61805,-1.52398 2.99407,-2.19885 2.13247,-1.04586 3.49973,-1.3931 5.48525,-1.3931 1.39138,0 1.68458,-0.0636 2.61877,-0.56798 0.57861,-0.3124 1.30381,-0.77364 1.61158,-1.02496 l 0.55957,-0.45698 -1.39892,-0.002 c -0.76941,-0.001 -2.2383,-0.13092 -3.26418,-0.28839 -1.02588,-0.15753 -3.16624,-0.44517 -4.75636,-0.63933 -1.59013,-0.19411 -3.94032,-0.62383 -5.22268,-0.95489 -2.30592,-0.59527 -2.38195,-0.60206 -6.91842,-0.6186 l -4.58688,-0.017 -1.38188,0.70278 c -1.87699,0.95452 -3.14626,1.93864 -6.070772,4.70685 -3.297718,3.12151 -5.099645,5.31838 -6.673092,8.13567 -3.524496,6.31076 -7.286767,10.87147 -11.199521,13.57636 -2.448287,1.69248 -6.415709,3.51358 -9.459587,4.34202 -2.074057,0.56452 -6.667029,0.61147 -8.536624,0.0872 -2.549925,-0.71491 -6.47496,-3.0081 -8.001752,-4.675 -1.012908,-1.10582 -1.401331,-1.9794 -1.966717,-4.42306 -0.663012,-2.86563 -0.703129,-3.21212 -0.486474,-4.20156 0.720654,-3.29123 3.189357,-6.90793 6.686145,-9.79532 1.599747,-1.32092 6.043219,-4.06282 8.102702,-4.99979 4.528494,-2.06033 5.752794,-2.59201 8.17082,-3.54827 1.497899,-0.59241 3.554324,-1.26266 4.569833,-1.48949 1.015509,-0.22682 2.999639,-0.74181 4.409179,-1.14444 4.074589,-1.16383 6.649813,-1.53834 9.654519,-1.40402 1.880354,0.0839 2.872361,0.22367 3.916989,0.55125 1.581994,0.49611 2.494722,0.49324 3.780472,-0.0121 l 0.88936,-0.34936 -1.783409,-0.80882 c -1.0273,-0.46591 -1.957931,-1.02514 -2.195021,-1.31905 -0.22639,-0.2806 -0.999165,-0.84273 -1.717277,-1.24914 -3.337383,-1.88878 -4.592795,-2.66906 -6.094612,-3.78802 -0.889922,-0.66306 -2.106992,-1.56729 -2.704597,-2.00942 -0.597606,-0.44211 -1.940697,-1.6172 -2.984646,-2.61131 -1.229926,-1.17123 -2.463498,-2.13583 -3.50427,-2.74012 -0.883398,-0.51295 -1.910433,-1.12819 -2.282294,-1.36719 -0.756891,-0.48649 -4.636167,-1.9113 -6.761227,-2.48333 -1.942604,-0.5229 -3.517931,-0.15605 -4.185946,0.97481 -0.955295,1.61719 -2.240325,2.4117 -5.073913,3.13706 -0.811241,0.20764 -2.01048,0.59564 -2.66498,0.86219 -1.984578,0.80819 -7.158246,1.59711 -11.262564,1.71743 -5.756502,0.16872 -8.939515,-0.50585 -12.660394,-2.68305 -3.309742,-1.93664 -4.839591,-4.53033 -4.848844,-8.22068 -0.0051,-2.05797 0.30104,-3.22499 1.442448,-5.49767 1.166285,-2.32221 1.789459,-2.85347 5.412421,-4.6142 5.172494,-2.51376 7.626101,-3.12155 11.822237,-2.92858 6.290799,0.2893 10.010621,1.56309 14.294569,4.89491 1.557351,1.21121 2.659241,2.47146 4.30493,4.9236 0.516369,0.76941 1.099916,1.54317 1.296772,1.71943 0.418309,0.37462 5.265899,2.65134 5.387108,2.53015 0.04516,-0.0452 -0.34226,-0.6982 -0.860962,-1.45116 -2.001442,-2.90531 -5.115664,-8.21306 -6.073917,-10.35211 -1.4833,-3.3111 -2.180679,-4.22542 -4.428165,-5.80571 -1.039248,-0.73072 -2.316591,-1.54361 -2.838538,-1.80641 -0.521945,-0.26279 -1.353778,-0.78679 -1.848515,-1.16445 -1.195767,-0.91275 -1.745957,-1.05123 -2.943242,-0.74084 -0.535759,0.13894 -1.183948,0.24706 -1.440419,0.24039 -0.256472,-0.006 -1.2427,0.0993 -2.191624,0.2358 -3.250072,0.46712 -7.115437,-0.28571 -10.984371,-2.13931 -2.687307,-1.28746 -4.119822,-2.26537 -5.870655,-4.00752 -3.207493,-3.19159 -5.036913,-7.47706 -4.778995,-11.19497 0.231348,-3.33486 2.888041,-6.84823 5.489358,-7.25947 2.21378,-0.34992 8.050743,0.87421 10.791066,2.26316 2.241253,1.13598 5.928093,4.43335 7.881249,7.04871 1.286868,1.72318 3.580973,7.24588 3.580973,8.62066 0,0.65254 2.861053,3.37448 2.946809,2.80354 0.03061,-0.20384 -0.403506,-2.20984 -0.964745,-4.45757 -0.561235,-2.24774 -1.280903,-5.34582 -1.599257,-6.88465 -0.318356,-1.53882 -0.781814,-3.34342 -1.029911,-4.01025 -0.248092,-0.66682 -0.728586,-2.12635 -1.067763,-3.2434 -0.596751,-1.96536 -0.650678,-2.06066 -1.668573,-2.94896 l -1.051891,-0.91794 -1.093133,0.30304 c -0.601223,0.16663 -2.066585,0.35061 -3.256359,0.40869 -2.520333,0.12311 -3.392424,-0.0832 -5.46217,-1.29147 -3.318976,-1.93766 -7.661764,-7.80829 -9.144181,-12.36128 -0.907699,-2.78783 -1.446275,-6.64839 -1.554188,-11.1405 -0.08559,-3.56182 -0.06001,-4.10962 0.210986,-4.52321 0.169585,-0.25885 0.43262,-0.47062 0.58451,-0.47062 0.151885,0 0.589371,-0.16789 0.972187,-0.37303 0.843816,-0.45227 2.091025,-0.48212 2.902468,-0.0695 1.614125,0.82079 4.665311,3.74523 5.825929,5.58389 1.198621,1.89891 5.381064,8.11921 6.569489,9.77044 2.113878,2.93707 3.701561,6.0576 4.431425,8.70979 0.243544,0.88501 0.50091,1.32774 1.131791,1.94689 0.449109,0.44076 0.872741,0.74523 0.941404,0.67656 0.111879,-0.11183 -0.0091,-1.55283 -0.496357,-5.91393 -0.189799,-1.6987 -0.627729,-2.98167 -1.679256,-4.91978 -0.619474,-1.14178 -1.300599,-1.97295 -3.057023,-3.73048 -2.724105,-2.72583 -3.399035,-3.53559 -5.09117,-6.10837 -3.141753,-4.77681 -3.787806,-8.63533 -2.229101,-13.3132 0.376014,-1.12848 1.061262,-2.72326 1.522767,-3.54397 0.461504,-0.82069 1.259292,-2.35043 1.772855,-3.39941 0.971309,-1.98375 1.467405,-2.47591 2.495868,-2.47591 0.487475,0 1.235204,0.76531 1.235204,1.26423 0,0.15479 1.41273,1.67987 3.1394,3.3892 3.460714,3.42593 4.043197,4.28402 4.24819,6.25821 0.08203,0.78983 0.0015,1.69541 -0.273786,3.07766 -0.507027,2.5462 -0.71217,4.36723 -0.966565,8.58009 -0.21645,3.58447 -0.127336,5.54426 0.288343,6.3418 0.133678,0.25647 0.412415,1.05385 0.619419,1.772 0.207012,0.7181 0.58994,1.93517 0.850966,2.70459 0.261029,0.76941 0.534633,1.98648 0.608016,2.70458 l 0.133423,1.30568 0.155798,-1.30568 c 0.409869,-3.43507 1.730151,-6.44673 4.141674,-9.44742 1.557822,-1.93843 2.849604,-3.09317 3.950324,-3.53134 0.299634,-0.1192 1.809263,-0.6516 3.35473,-1.18296 1.858114,-0.63889 3.362056,-1.29842 4.439871,-1.9471 1.117783,-0.67274 1.78748,-0.96273 2.131349,-0.92291 0.67956,0.0787 0.737047,0.58051 0.16307,1.42356 -0.473565,0.69557 -0.506196,0.85328 -1.156466,5.59023 -0.159011,1.15833 -0.44478,2.60622 -0.635035,3.21754 -0.190244,0.61127 -0.315214,1.11143 -0.277684,1.11143 0.03754,0 0.469393,-0.37643 0.959693,-0.8365 0.4903,-0.46008 1.437037,-1.13734 2.103861,-1.50499 0.666822,-0.36764 1.548148,-0.87074 1.9585,-1.11797 0.863601,-0.52033 2.777203,-1.20364 3.37081,-1.20364 0.223988,0 0.50186,0.114 0.617495,0.2533 0.142474,0.17171 0.271725,2.95237 0.400981,8.62675 0.104903,4.60538 0.314351,9.67641 0.465432,11.26903 0.378033,3.98503 0.346652,5.35235 -0.175674,7.65484 -0.550606,2.42706 -1.16519,3.80658 -2.820115,6.33018 -1.305378,1.99056 -3.972728,4.85352 -6.681257,7.17117 -2.838412,2.42882 -4.764692,5.27061 -4.930026,7.27316 -0.113168,1.37062 0.270967,4.79033 0.643718,5.73072 0.469577,1.18464 1.813508,3.3399 2.668739,4.27986 l 0.745031,0.81885 -0.559115,-1.26045 c -0.772115,-1.74058 -1.107704,-3.30746 -1.110946,-5.187 -0.0057,-3.2878 0.631865,-5.01355 2.650833,-7.17543 2.553459,-2.73422 6.84705,-4.18087 10.006341,-3.37152 1.326592,0.33986 1.937896,0.70905 3.28786,1.98561 0.882143,0.83417 1.003284,0.8884 2.238291,1.00164 1.947676,0.17868 3.294228,0.91233 5.276305,2.87489 1.067307,1.05678 1.860622,2.04079 2.283182,2.83195 l 0.647555,1.2124 0.05138,-0.65283 c 0.128369,-1.62665 0.612361,-4.18136 0.844141,-4.45495 0.14043,-0.16577 0.36754,-0.59519 0.50467,-0.95425 1.32344,-3.46524 4.05383,-7.63324 6.48795,-9.90397 0.95962,-0.89523 3.56965,-2.8353 5.07255,-3.77054 0.74888,-0.46601 1.30829,-0.17192 1.30829,0.68783 0,1.10023 0.70438,3.41095 2.12648,6.97585 4.24774,10.64803 5.53879,14.75504 5.89174,18.74222 0.10211,1.15348 0.18637,2.14855 0.18722,2.21126 9.5e-4,0.0627 0.48425,0.1607 1.0741,0.21772 0.5899,0.0571 1.64399,0.28346 2.34242,0.50308 1.07615,0.33838 1.48152,0.60035 2.65695,1.71686 l 1.38704,1.31755 -0.67814,-1.22006 c -0.37296,-0.67104 -1.12757,-1.73541 -1.67688,-2.36525 -1.27064,-1.45696 -1.41868,-1.969 -0.73842,-2.55416 0.62025,-0.5335 1.29886,-0.54888 2.54507,-0.0577 0.52555,0.20721 1.89261,0.63552 3.03791,0.95191 4.33674,1.19807 8.82935,3.82671 13.30456,7.78459 3.39845,3.00558 5.00883,5.16475 7.08445,9.49876 2.03253,4.24401 2.64838,6.19949 2.87567,9.13116 0.39711,5.12138 0.39777,5.15507 0.12136,6.04053 l -0.26901,0.86213 0.9131,0.39871 c 0.50218,0.21928 2.03746,0.69448 3.41171,1.05599 l 2.49865,0.65734 1.83214,-0.37488 c 1.60242,-0.32788 4.51675,-1.08761 10.1002,-2.63302 l 1.55316,-0.4299 -0.52728,-0.27226 c -0.29003,-0.14971 -0.5933,-0.38431 -0.67397,-0.52118 -0.10243,-0.17403 -0.38282,-0.2172 -0.9326,-0.14338 -0.4323,0.058 -1.70926,0.0189 -2.83774,-0.0856 -1.89418,-0.17654 -2.18189,-0.25785 -3.74573,-1.05903 -2.13437,-1.09347 -3.38179,-2.02562 -5.92442,-4.42707 -1.94224,-1.83439 -4.28274,-4.74796 -5.1383,-6.39644 -1.22694,-2.36391 -0.86418,-5.7249 0.88705,-8.21854 1.83204,-2.60873 3.42588,-3.61153 6.30769,-3.96866 2.4476,-0.30331 4.82305,0.11332 7.04494,1.23582 l 0.92344,0.46648 -0.31727,-0.44178 c -0.17443,-0.24301 -0.57855,-0.94542 -0.89787,-1.56093 -0.31935,-0.61555 -1.19553,-2.25227 -1.94703,-3.63724 -1.76338,-3.24963 -3.0543,-6.12915 -4.07761,-9.09543 -0.45078,-1.30669 -0.99374,-2.75347 -1.20658,-3.21514 -0.48752,-1.0575 -0.49323,-1.53212 -0.0234,-1.95719 0.32711,-0.29604 0.58978,-0.32122 2.19165,-0.21019 4.29765,0.298 10.26219,1.51343 13.32908,2.71614 3.76711,1.4773 7.18876,3.9249 11.8792,8.49758 3.95831,3.85894 5.10485,5.25169 8.68136,10.54518 4.17049,6.17267 4.59822,6.70721 6.18805,7.73353 1.25192,0.80815 1.72702,1.51311 1.99631,2.96212 l 0.2217,1.19307 3.07764,-1.26334 c 3.18175,-1.30604 10.21697,-4.55455 10.52928,-4.86186 0.11126,-0.10955 0.0766,-0.17551 -0.0932,-0.17762 -1.01059,-0.0121 -3.83405,-0.40812 -3.9849,-0.55896 -0.10105,-0.10095 -0.60777,-0.18459 -1.12585,-0.18544 -3.15565,-0.004 -6.75711,-0.79272 -9.40173,-2.05601 -4.09651,-1.95685 -6.68206,-4.35102 -8.39929,-7.77755 -0.83552,-1.66719 -2.34085,-6.8673 -2.71444,-9.37687 -0.24866,-1.67034 -0.54108,-2.70374 -1.32142,-4.66992 -2.02997,-5.11473 -2.73005,-6.32799 -4.04323,-7.00707 -0.90527,-0.46812 -1.20524,-1.57378 -0.52562,-1.93749 0.27674,-0.14803 0.73427,-0.10531 1.81861,0.16999 0.79685,0.20236 2.64866,0.58446 4.11516,0.84907 3.24274,0.58517 4.64803,1.02502 7.72173,2.41681 4.67442,2.11662 8.01177,4.30949 11.18436,7.34884 l 2.0111,1.92662 0.92709,-0.92707 c 1.13171,-1.13171 4.36182,-2.78511 6.79965,-3.48052 3.89981,-1.11249 7.44354,-0.19834 11.82476,3.05006 1.32693,0.98386 1.88527,1.5404 2.98836,2.97884 l 0.3362,0.43843 1.8577,-1.0622 c 1.02171,-0.58422 3.41045,-2.08921 5.30833,-3.34439 1.89788,-1.25519 3.66658,-2.41452 3.93042,-2.57629 0.42031,-0.25769 2.54881,-3.09203 3.95904,-5.27192 0.67982,-1.0508 2.22729,-5.40714 2.32788,-6.55328 0.0751,-0.85476 0.1696,-1.02897 0.88011,-1.62294 0.4378,-0.36595 1.54036,-1.0541 2.45013,-1.5292 0.90977,-0.47511 1.78663,-0.98282 1.94859,-1.12828 0.41158,-0.36965 0.87006,-0.32941 1.0979,0.0962 0.24824,0.46382 0.24868,1.26154 0,1.41474 -0.10573,0.0653 -0.69507,1.17779 -1.30956,2.47204 -0.61445,1.29423 -1.24252,2.49165 -1.39565,2.66084 -0.1531,0.16918 -0.5586,1.13921 -0.90098,2.15548 -0.87883,2.60861 -1.39406,3.59296 -3.21256,6.1378 -0.87968,1.23104 -2.1533,3.16159 -2.83021,4.29004 -1.59985,2.66701 -1.88848,3.05445 -3.68219,4.94289 -1.47509,1.55294 -4.56307,5.33297 -5.55899,6.80477 -0.27642,0.40853 -0.50258,0.88754 -0.50258,1.06445 0,0.177 -0.58174,1.43751 -1.29273,2.80122 -0.71101,1.36374 -1.43605,2.84244 -1.61123,3.28599 l -0.31849,0.80654 0.72523,0.5881 c 1.59511,1.29347 2.93197,2.69145 3.33536,3.48784 0.23383,0.46166 0.78554,1.93052 1.226,3.26417 0.7419,2.24631 0.8017,2.57587 0.81203,4.47656 0.0121,2.41192 -0.24516,3.32691 -1.9694,6.97554 -0.98209,2.07826 -1.23916,2.45602 -2.5386,3.73047 -2.37309,2.32751 -4.55911,3.18229 -7.18572,2.80975 -2.23545,-0.31706 -3.46959,-1.30075 -4.66673,-3.71975 l -0.59827,-1.20892 v -3.54745 c 0,-3.1449 0.0578,-3.81202 0.502,-5.87899 0.27566,-1.28236 0.63782,-3.12895 0.8048,-4.10352 0.50363,-2.93874 1.49703,-4.62726 3.49054,-5.93299 1.7479,-1.14486 2.73859,-1.9336 3.16273,-2.51796 0.20913,-0.28803 0.34926,-0.55452 0.31156,-0.59218 -0.0376,-0.0377 -1.0331,0.65211 -2.21201,1.53291 -2.02758,1.51489 -3.53484,2.49779 -7.95846,5.19004 -3.78332,2.30254 -4.35589,2.83024 -6.49343,5.98475 -1.81707,2.6815 -1.93605,2.91512 -2.04765,4.0211 -0.10467,1.03646 -0.0325,1.44773 0.61452,3.50577 1.06884,3.39987 1.2412,4.61543 1.24292,8.76663 0.001,4.12292 -0.32365,6.24676 -1.52897,9.97902 -2.6839,8.31108 -7.26822,14.63393 -13.40911,18.49448 -4.59616,2.88938 -7.37639,3.98163 -10.13487,3.98163 -2.79087,0 -4.23472,-0.81161 -5.33672,-2.9999 -1.46834,-2.91572 -1.14207,-7.21761 0.84753,-11.17592 1.08983,-2.1681 2.17776,-3.47658 6.90139,-8.30029 5.40589,-5.52046 5.58622,-5.81197 6.15517,-9.94993 0.44937,-3.26842 0.60316,-3.85798 1.44143,-5.52562 1.3474,-2.6807 2.57237,-4.1191 4.3211,-5.07414 2.54377,-1.38924 3.48663,-2.1008 4.46795,-3.37192 0.53463,-0.69252 1.30161,-1.67545 1.70441,-2.18425 0.40279,-0.50885 0.69829,-0.95921 0.65666,-1.00085 -0.0416,-0.0416 -0.98227,0.42763 -2.09033,1.04277 -5.74164,3.18756 -10.61542,5.41108 -15.21429,6.94105 -3.28293,1.09216 -3.54212,1.2125 -4.17194,1.93665 -0.36937,0.42465 -0.7959,1.0659 -0.94788,1.42495 -0.15202,0.35908 -0.46547,0.90465 -0.69664,1.21244 -0.70337,0.93638 -1.00408,1.65597 -1.22708,2.93658 -0.17742,1.01921 -0.16747,1.29769 0.0597,1.66196 0.15013,0.24068 0.42145,1.00379 0.60306,1.69578 0.68338,2.60413 0.0323,6.17816 -1.66718,9.15253 -2.2154,3.87725 -5.62354,6.97131 -9.02171,8.19033 -1.16662,0.41853 -4.24781,0.65636 -5.69388,0.43951 -2.47172,-0.37068 -4.23572,-3.05499 -4.23043,-6.43743 0.002,-1.70153 0.23857,-2.63049 1.36253,-5.36558 2.23185,-5.43103 3.63683,-7.2389 6.70797,-8.63142 1.56817,-0.71103 4.29151,-1.19914 5.9391,-1.06442 1.20077,0.098 1.25059,0.0846 1.80062,-0.49235 0.68732,-0.72089 2.69093,-3.50912 2.59241,-3.60762 -0.0389,-0.0389 -0.73343,0.0976 -1.54361,0.30337 -0.81016,0.20574 -3.69729,0.91373 -6.41589,1.57342 -3.2607,0.7912 -5.64115,1.48359 -6.99463,2.03443 -3.03246,1.23421 -6.42943,1.86501 -10.17809,1.89002 -2.89531,0.0189 -2.90727,0.0212 -4.16351,0.6396 -0.69292,0.34114 -1.41467,0.57977 -1.60389,0.53029 -0.22249,-0.0582 -0.53456,0.1165 -0.88361,0.49467 -0.56129,0.60813 -2.49533,3.0335 -2.72241,3.41405 -0.0716,0.11988 0.11798,0.62352 0.42109,1.11912 0.38929,0.6364 0.68535,1.55863 1.0078,3.13938 0.62257,3.05175 0.73068,4.52299 0.49349,6.71485 -0.81209,7.50487 -2.53346,11.38323 -7.08439,15.96168 -2.60678,2.62256 -4.54124,4.0829 -7.21141,5.444 -4.34264,2.21369 -8.04015,2.81401 -13.95997,2.26644 z m 9.13967,-2.01177 c 2.10708,-0.61313 5.74886,-2.42111 7.46094,-3.70405 1.75527,-1.3153 5.0453,-4.61257 6.11912,-6.13253 1.14109,-1.61522 2.21448,-3.79907 2.82095,-5.73923 1.0853,-3.47205 1.57139,-8.51749 1.06933,-11.09896 -0.26955,-1.38591 -1.09952,-3.15402 -1.96913,-4.19489 -0.36992,-0.44276 -0.67258,-0.96566 -0.67258,-1.16201 0,-0.19644 0.44173,-0.83894 0.98161,-1.42794 0.53988,-0.58896 1.37892,-1.58867 1.86454,-2.22157 1.29118,-1.68276 2.69991,-2.85956 3.42307,-2.85956 0.32262,0 0.91163,-0.13872 1.30885,-0.30847 0.53464,-0.22837 1.61864,-0.34332 4.17295,-0.44253 4.12801,-0.16027 7.15204,-0.71866 9.53501,-1.76043 1.46938,-0.64237 7.42265,-2.21613 11.72871,-3.10055 0.97457,-0.20024 2.34032,-0.54243 3.03498,-0.76063 1.24432,-0.39082 1.27267,-0.39153 1.91293,-0.0467 0.3575,0.19242 0.69835,0.5025 0.75749,0.68884 0.0882,0.27751 0.20385,0.1937 0.63968,-0.46264 1.14471,-1.7243 1.53569,-1.95655 5.62318,-3.3408 4.36826,-1.4793 6.17263,-2.26404 11.72027,-5.09732 7.34175,-3.7496 7.99551,-4.04767 8.40118,-3.83054 0.51383,0.27497 0.45815,0.72214 -0.25891,2.07882 -0.34342,0.64967 -0.76822,1.61703 -0.94402,2.14966 -0.50665,1.53494 -3.24858,4.0177 -6.12883,5.5495 -0.74207,0.39463 -1.62317,0.92032 -1.958,1.16817 -1.46001,1.08075 -3.40342,4.55399 -3.76328,6.72565 -0.11435,0.69096 -0.33143,2.12943 -0.48209,3.19657 -0.49283,3.49084 -1.06213,4.35597 -6.51745,9.90398 -4.498,4.57447 -5.49102,5.75966 -6.49214,7.74878 -1.17797,2.34046 -1.5319,3.80236 -1.53342,6.33377 -10e-4,2.10055 0.0315,2.30141 0.53222,3.26417 0.7391,1.42119 1.16409,1.82871 2.24058,2.1484 1.25415,0.37244 2.38536,0.34785 4.04946,-0.088 1.9376,-0.50752 3.12796,-1.06777 5.97074,-2.81017 3.03994,-1.86325 4.18296,-2.73963 5.86733,-4.49862 4.49289,-4.69202 7.63039,-10.96163 9.08407,-18.15265 0.33777,-1.67088 0.41563,-2.67532 0.4127,-5.32361 -0.004,-3.64291 -0.19454,-5.00428 -1.12298,-8.0284 -0.85754,-2.79304 -0.98864,-4.42253 -0.46695,-5.80442 0.21923,-0.58074 0.65926,-1.37814 0.97787,-1.77197 0.31859,-0.39384 1.11169,-1.53033 1.76241,-2.52556 1.28763,-1.96933 2.5101,-3.0326 5.57121,-4.84565 0.8207,-0.48612 1.6996,-1.03414 1.9531,-1.21787 0.2535,-0.18375 0.92498,-0.61687 1.49218,-0.96257 0.56722,-0.34567 1.57686,-1.10533 2.2437,-1.68816 1.47732,-1.29119 2.71795,-2.17891 4.1968,-3.0029 0.61549,-0.34296 1.58811,-0.95099 2.16128,-1.35115 0.75517,-0.52721 1.19179,-0.71052 1.58546,-0.66563 0.51337,0.0586 0.54235,0.1083 0.52631,0.90131 -0.017,0.80578 0.033,0.73461 1.23017,-1.77922 1.35867,-2.85265 3.69008,-6.16505 6.23089,-8.85263 1.94482,-2.05717 2.51347,-2.81253 4.21263,-5.59574 0.84552,-1.38493 2.14851,-3.35743 2.89552,-4.38331 1.73767,-2.38632 2.14256,-3.16438 2.98302,-5.73231 0.45064,-1.37697 0.8382,-2.23032 1.1239,-2.47473 0.34495,-0.29509 1.70586,-2.89113 1.5156,-2.89113 -0.0263,0 -0.58151,0.28534 -1.2342,0.63406 -1.07882,0.57639 -1.19293,0.69481 -1.25528,1.30242 -0.11649,1.13583 -1.90008,5.91266 -2.65161,7.10159 -0.73236,1.15866 -2.47933,3.66112 -3.27682,4.69385 -0.24717,0.32008 -0.90683,0.84014 -1.46598,1.1557 -0.55913,0.31553 -1.84967,1.16098 -2.86789,1.87875 -1.01825,0.71777 -2.76714,1.86036 -3.88646,2.5391 -2.34498,1.42194 -2.47817,1.5216 -1.47515,1.10385 1.2744,-0.53083 2.19252,-1.04099 2.49559,-1.38669 0.16092,-0.18354 0.60086,-0.38658 0.97754,-0.45101 0.56732,-0.0971 0.73316,-0.0482 0.96606,0.28421 0.55582,0.79357 0.16325,1.29223 -5.15719,6.55164 -1.73474,1.71482 -3.3342,3.17182 -3.55439,3.23782 -0.22016,0.0661 -0.69409,0.39605 -1.05313,0.73348 -1.21592,1.14272 -7.35967,5.50844 -8.67337,6.16327 -1.46633,0.7309 -2.85964,1.01398 -4.99841,1.01556 -1.31189,0.001 -1.49676,-0.0446 -1.88588,-0.46439 -0.35818,-0.38649 -0.43387,-0.67933 -0.44598,-1.72536 -0.0189,-1.56052 -0.56142,-3.69466 -1.40611,-5.52292 -0.46224,-1.0005 -1.04868,-1.82524 -2.08835,-2.93695 -1.90064,-2.03236 -2.18442,-2.68652 -2.11514,-4.87562 l 0.0538,-1.69498 -1.8716,-1.78805 c -2.11732,-2.02283 -4.58603,-3.84672 -7.09504,-5.2419 -1.84882,-1.02804 -6.0061,-2.954 -7.39208,-3.42456 -0.81127,-0.27543 -3.56835,-0.86933 -5.30454,-1.14263 l -0.78861,-0.12419 0.53036,1.27477 c 0.29173,0.70109 0.87742,2.01078 1.30157,2.9104 0.42416,0.89963 0.77119,1.73268 0.77119,1.85122 0,0.11866 0.20745,0.8163 0.46079,1.5506 0.25345,0.73426 0.62941,2.37735 0.83549,3.65125 0.46721,2.88796 1.85293,7.45152 2.83839,9.34753 1.00282,1.92938 2.60554,3.62916 4.7905,5.08058 3.79177,2.51887 7.35146,3.54499 11.89314,3.42839 3.45101,-0.0886 7.07759,0.77208 7.42585,1.76237 0.33909,0.96416 -0.54576,1.52524 -7.0737,4.48515 -4.52398,2.05127 -10.54327,4.41876 -11.23463,4.41876 -0.45802,0 -0.88926,-0.62935 -0.67367,-0.98313 0.0768,-0.12607 0.33255,-0.38229 0.56821,-0.56925 0.87386,-0.69336 0.36029,-2.66526 -0.85625,-3.28739 -1.43871,-0.73578 -2.90103,-2.55183 -7.66773,-9.52259 -2.74415,-4.01301 -3.79591,-5.25488 -7.59354,-8.96584 -4.67426,-4.56766 -8.38913,-7.19191 -11.99219,-8.4716 -1.6819,-0.59736 -5.43499,-1.46883 -8.44752,-1.96148 -1.20944,-0.19769 -2.27986,-0.40962 -2.3787,-0.47071 -0.099,-0.0612 -0.54128,-0.0569 -0.98314,0.009 l -0.8033,0.12055 0.12459,0.87013 c 0.0685,0.47861 0.5974,1.8616 1.17533,3.07338 0.57791,1.21179 1.56083,3.47805 2.18423,5.03614 1.95214,4.87914 4.16449,8.40372 7.16978,11.42238 2.34813,2.35859 4.0921,3.7144 5.98548,4.65337 1.6293,0.80803 6.47071,2.42064 8.10311,2.69906 1.74282,0.29728 8.49506,0.52015 9.89793,0.32671 2.24781,-0.30992 2.69154,-0.26708 3.56044,0.34359 2.30738,1.62168 2.20654,3.9414 -0.27331,6.28649 -1.91883,1.81458 -3.53123,2.40357 -8.24794,3.01291 -2.04357,0.26399 -5.04396,0.97753 -5.96878,1.41944 -0.20511,0.098 -0.96058,0.35627 -1.67871,0.57382 -0.71811,0.21753 -1.61708,0.55395 -1.99771,0.74757 -0.86663,0.44085 -2.2559,0.45387 -4.62388,0.0434 -2.12417,-0.36828 -2.83519,-0.4067 -2.91651,-0.15753 -0.0334,0.10243 0.40641,0.38894 0.97757,0.63633 1.12189,0.48598 1.52986,1.06549 1.19306,1.69479 -0.23478,0.43868 -0.5833,0.5474 -2.37874,0.74195 -0.79487,0.0861 -2.99804,0.5844 -4.8959,1.10723 -1.89788,0.52283 -4.10121,1.09045 -4.89627,1.26139 -1.29275,0.27796 -1.44555,0.35602 -1.44555,0.73878 0,0.77368 -0.51387,0.83695 -2.85513,0.35145 -2.3046,-0.47791 -3.84243,-0.8972 -6.61835,-1.8045 -2.18396,-0.71381 -2.50645,-1.08176 -1.97663,-2.25517 0.41671,-0.92292 0.45156,-2.58927 0.12835,-6.13382 -0.26997,-2.95961 -0.79431,-4.56775 -2.91135,-8.92881 -2.14854,-4.426 -3.54042,-6.22353 -7.38828,-9.54159 -1.18817,-1.02458 -2.95772,-2.39643 -3.9323,-3.04857 -2.25676,-1.51006 -5.70398,-3.12973 -7.98195,-3.7503 -0.97617,-0.26596 -2.08763,-0.5939 -2.46991,-0.72876 l -0.69504,-0.24524 1.16737,1.74604 c 1.32249,1.97803 2.40498,4.4006 2.70458,6.05284 0.149,0.82156 0.14499,1.65377 -0.015,3.12599 -0.31586,2.90651 -0.32032,7.91666 -0.009,9.28041 0.60861,2.65989 2.42117,5.68612 4.86251,8.11837 2.0444,2.03677 3.67699,3.15961 5.52532,3.80011 0.71155,0.24656 1.60439,0.58202 1.98414,0.74549 1.03852,0.44703 5.14969,1.0779 5.56745,0.85431 0.33446,-0.17888 1.011,0.0917 2.41548,0.967 0.25647,0.15984 1.54524,0.56892 2.86391,0.90915 1.31868,0.34021 2.56298,0.75249 2.76512,0.91619 0.36338,0.29425 0.36182,0.30909 -0.13891,1.31983 -0.70721,1.42741 -2.36164,3.40783 -3.85439,4.61393 -0.69445,0.5611 -1.26265,1.08635 -1.26265,1.16727 0,0.0809 -0.30809,0.32886 -0.6846,0.55099 -0.51635,0.30469 -1.17938,0.44415 -2.69753,0.56757 -1.76749,0.14356 -2.30365,0.27827 -4.39815,1.10413 -2.89471,1.14144 -4.8542,2.41798 -6.78542,4.42046 -2.47819,2.56967 -4.11753,5.06945 -5.30538,8.09003 -0.38317,0.97436 -0.9316,2.24072 -1.21874,2.81414 -1.53822,3.07176 -6.10194,8.54319 -7.93587,9.51425 -0.4896,0.25924 -2.12378,2.39292 -2.12378,2.77292 0,0.0754 0.24802,0.47968 0.55118,0.89815 0.40628,0.56092 0.96026,0.96362 2.10722,1.53198 1.39515,0.69132 1.76733,0.78964 3.59899,0.95085 1.12359,0.099 2.16881,0.21488 2.32271,0.25774 0.15385,0.043 1.70668,0.051 3.45069,0.017 2.75784,-0.0522 3.38956,-0.12365 4.8496,-0.54862 z m -6.31073,-2.66599 c -0.37536,-0.37535 0.14713,-1.06821 2.82057,-3.74031 4.77708,-4.77469 7.69511,-9.0388 11.87505,-17.353 2.11685,-4.21055 2.95507,-5.29758 4.11518,-5.33685 0.67559,-0.0229 0.74836,0.0212 0.80111,0.47713 0.0461,0.39882 -0.0578,0.56207 -0.50329,0.79254 -0.82848,0.42841 -1.37309,1.24683 -2.72979,4.10199 -3.63105,7.64164 -7.34828,13.27603 -11.74392,17.80093 -2.83767,2.92113 -4.0907,3.80179 -4.63491,3.25757 z m 67.35066,-13.87987 c -0.55197,-0.3215 -0.37617,-0.71096 0.99011,-2.19362 2.69939,-2.92929 6.56442,-8.88102 9.04332,-13.92576 1.54233,-3.13878 2.19316,-5.20366 2.10343,-6.67367 -0.0571,-0.93542 -0.0398,-0.97608 0.44183,-1.03172 0.37116,-0.043 0.58361,0.0679 0.81858,0.42642 1.17133,1.7877 -2.01043,9.26278 -7.2597,17.05571 -2.05353,3.04859 -3.93242,5.3575 -4.91237,6.0366 -0.82726,0.57327 -0.78462,0.56262 -1.2252,0.30604 z m -51.15416,-29.85911 c -3.04687,-1.90369 -7.87018,-9.05533 -9.71956,-14.41144 -0.51032,-1.47792 -0.5616,-2.20387 -0.17803,-2.52211 0.45005,-0.37353 0.9774,0.0844 1.3295,1.15412 0.58809,1.787 1.72586,4.23981 2.99122,6.44837 2.54339,4.43921 4.19684,6.54916 6.27133,8.0028 0.79785,0.55906 1.45065,1.08657 1.45065,1.17224 0,0.90496 -0.84765,0.96662 -2.14501,0.15605 z m 38.22489,-21.84164 c -0.82758,-0.64011 -3.00991,-2.38541 -4.84961,-3.87847 -3.69338,-2.99741 -7.31064,-5.78209 -9.31371,-7.16999 -2.31496,-1.60401 -2.79475,-2.25821 -1.97711,-2.69579 0.28959,-0.155 0.6396,0.002 1.91189,0.85943 4.45431,3.00061 16.29192,12.32648 16.64573,13.11377 0.1939,0.4316 -0.13639,0.93984 -0.60892,0.93682 -0.16704,-0.001 -0.98068,-0.52566 -1.80827,-1.16577 z m 25.14353,-2.01013 c -2.1978,-0.88291 -6.30637,-5.00893 -10.33537,-10.37927 -3.17679,-4.23442 -4.22944,-6.95573 -2.52112,-6.51769 0.26602,0.0683 0.6207,0.51652 1.01428,1.28201 1.40424,2.73135 5.0463,7.50731 8.30475,10.89036 2.22816,2.31335 3.57064,3.28043 4.74566,3.41864 1.11339,0.13092 1.46418,0.61429 0.82596,1.13804 -0.46422,0.38097 -1.32659,0.45215 -2.03416,0.1679 z M 68.084696,261.36754 c 2.373585,-0.49027 4.107969,-1.11735 6.85232,-2.47757 2.826847,-1.40113 4.556445,-2.584 6.403314,-4.37924 2.53483,-2.46398 5.210508,-6.13706 7.765581,-10.66036 1.32256,-2.34136 2.581082,-4.04025 4.474977,-6.04079 1.796119,-1.89723 5.649306,-5.39463 6.744942,-6.12209 0.55237,-0.36675 1.00431,-0.77891 1.00431,-0.91589 0,-0.87185 3.2161,-1.27615 9.13536,-1.14847 3.63009,0.0783 3.96793,0.1173 6.53265,0.75575 1.48754,0.37027 3.54396,0.76721 4.56983,0.88212 1.02589,0.1149 2.83052,0.37076 4.01027,0.56853 2.33613,0.3917 5.12719,0.50743 6.6652,0.27635 1.21961,-0.18333 1.91491,0.17803 1.91491,0.99478 0,0.67782 -0.3191,0.95162 -2.21506,1.90057 -1.11115,0.55615 -1.48533,0.82634 -1.30378,0.94135 0.14007,0.0887 0.37323,0.16261 0.51813,0.1643 0.39296,0.004 2.06769,-1.09064 2.82912,-1.84961 0.36844,-0.36727 1.18223,-0.86577 1.81554,-1.11215 l 1.14778,-0.44654 2.38125,0.49108 c 2.1285,0.43895 5.12981,0.86635 6.0937,0.86779 0.28734,0 0.22477,-0.12607 -0.32813,-0.66295 -1.04536,-1.01521 -2.41637,-1.4195 -4.96979,-1.46541 -1.72314,-0.0308 -2.36514,-0.12284 -3.26416,-0.46678 -2.55316,-0.97688 -5.38248,-1.69431 -6.70819,-1.70103 -0.7218,-0.004 -1.79473,-0.12203 -2.38433,-0.26285 -0.62208,-0.14866 -1.11596,-0.18504 -1.17678,-0.0867 -0.28877,0.46724 -6.39863,-0.1231 -8.75615,-0.84608 -0.51294,-0.15733 -1.12987,-0.28689 -1.37095,-0.28799 -0.45446,-0.002 -0.98489,-0.47578 -2.49783,-2.23053 -0.48184,-0.55886 -0.92172,-0.97043 -0.97753,-0.91463 -0.0557,0.0557 0.0247,0.40345 0.17891,0.77251 0.6749,1.61526 -0.50897,2.08733 -2.67041,1.06482 -0.65039,-0.3077 -1.32188,-0.56122 -1.4922,-0.56337 -0.81209,-0.0106 -7.11476,-2.72376 -9.449342,-4.06816 -2.568522,-1.4791 -2.782573,-1.72225 -3.661103,-4.1586 -0.889071,-2.46551 -1.222161,-2.87731 -0.448631,-0.55459 0.544067,1.6337 0.558087,2.38749 0.05021,2.70442 -0.262226,0.16368 -0.574362,0.0783 -1.538595,-0.42108 -1.307184,-0.67699 -2.590796,-1.94472 -3.857125,-3.80947 -1.059576,-1.5603 -3.20876,-3.77394 -4.534117,-4.67009 -2.750826,-1.85995 -4.691859,-3.49649 -5.611061,-4.73075 -1.441904,-1.93613 -2.129682,-3.11855 -2.129682,-3.66141 0,-0.59684 -1.57972,-2.49102 -3.488588,-4.18302 -1.921412,-1.7031 -4.083555,-5.04275 -4.517012,-6.97691 -0.266123,-1.18749 -0.587955,-6.27419 -0.450542,-7.121 0.06257,-0.38557 0.270038,-0.8105 0.461035,-0.94428 0.191005,-0.13388 0.681787,-0.76078 1.090639,-1.39336 0.77267,-1.19546 2.762358,-3.25509 6.269636,-6.48996 2.246491,-2.072 3.062851,-3.05011 4.623205,-5.53922 1.256597,-2.00454 1.66954,-3.07141 2.1967,-5.67524 0.404984,-2.00038 0.405017,-2.00273 0.07361,-5.35868 -0.232131,-2.35059 -0.355541,-5.59485 -0.411522,-10.81838 -0.08417,-7.85394 -0.130824,-8.67448 -0.493042,-8.67154 -0.123591,0.001 -0.644383,0.2085 -1.157324,0.461 -2.114363,1.04108 -3.747735,2.14545 -4.983959,3.36984 -1.723112,1.70658 -5.270296,6.69731 -5.959438,8.38464 -0.293291,0.71812 -0.737505,1.47354 -0.98714,1.67871 -0.632559,0.51991 -1.094323,1.66006 -1.813041,4.47659 l -0.61876,2.42482 0.01481,5.96875 c 0.01437,5.76392 0.03316,6.06479 0.549654,8.76662 0.624966,3.26927 0.618968,3.08001 0.215759,6.80812 -0.171974,1.59013 -0.312959,3.53868 -0.313297,4.33011 -5.58e-4,1.22973 -0.0529,1.467 -0.360148,1.63142 -0.578017,0.30936 -0.910168,0.0386 -1.213885,-0.98878 -0.156473,-0.52936 -0.495979,-1.37542 -0.754463,-1.8801 -0.258486,-0.50466 -0.469974,-1.05823 -0.469974,-1.23011 0,-0.17192 -0.587603,-1.75964 -1.305779,-3.52835 -1.804604,-4.44426 -2.332336,-6.56376 -2.604012,-10.45824 -0.116494,-1.66979 -0.303772,-2.76535 -0.659873,-3.86003 -0.452807,-1.39192 -0.478215,-1.62002 -0.284427,-2.5535 0.188572,-0.90836 0.348961,-1.15243 1.409058,-2.14407 0.657938,-0.61549 1.765181,-1.45287 2.460535,-1.86084 1.84599,-1.08309 2.366369,-1.71496 2.833105,-3.44012 0.420839,-1.55553 0.99624,-2.79839 2.367881,-5.11455 0.472681,-0.79821 1.025392,-1.87094 1.228241,-2.38387 0.486439,-1.23003 2.006715,-4.01028 2.192883,-4.01028 0.229255,0 1.282461,-2.48423 1.683597,-3.97118 0.275987,-1.02305 0.935781,-5.6046 0.937378,-6.50909 1.22e-4,-0.0705 -0.524373,0.1091 -1.165548,0.39911 -0.641176,0.28999 -1.79145,0.71307 -2.556166,0.94016 -2.333004,0.69279 -4.038766,1.41706 -4.824377,2.04839 -0.953978,0.76663 -3.1688,3.51382 -3.931936,4.87703 -2.372076,4.23728 -2.840475,10.1714 -1.190124,15.07765 0.273886,0.81423 0.270164,0.83909 -0.181468,1.21239 -0.253598,0.20957 -0.611992,0.80085 -0.796436,1.31378 -0.184428,0.51295 -0.441303,1.04902 -0.570806,1.19126 -0.666444,0.73211 -1.443344,-0.81691 -1.733375,-3.4561 -0.111147,-1.01126 -0.321392,-2.21639 -0.467241,-2.67805 l -0.265178,-0.83937 -0.0184,1.60926 c -0.02184,1.90523 -0.180875,2.1331 -1.374644,1.96949 -0.757624,-0.10382 -2.933846,-0.95572 -2.933846,-1.14846 0,-0.051 -0.257045,-1.03817 -0.571213,-2.19399 -0.85362,-3.14052 -2.03136,-5.66432 -3.940101,-8.44333 -0.915997,-1.33365 -3.203466,-4.73305 -5.083263,-7.55422 -3.15923,-4.74134 -3.542958,-5.23884 -5.07199,-6.57584 -2.138539,-1.86993 -2.625301,-2.11014 -3.519222,-1.73662 -1.118727,0.46743 -1.27643,1.1278 -1.161062,4.86177 0.100925,3.26682 0.65562,6.9566 1.444073,9.60596 1.123742,3.77606 4.875333,9.22576 7.789703,11.31568 1.914992,1.37326 3.37996,1.82521 5.434856,1.67676 0.880317,-0.0637 2.180063,-0.27734 2.888328,-0.47493 1.553154,-0.43332 1.765633,-0.36729 3.429682,1.06582 1.228231,1.05779 1.715926,1.80615 2.088577,3.20487 0.122836,0.46107 0.33186,0.96422 0.464497,1.11812 0.132641,0.15392 0.59263,1.7906 1.022202,3.6372 0.429575,1.84658 1.357074,5.66566 2.061109,8.48685 1.525163,6.11154 1.814281,7.87644 1.395091,8.5162 -0.55147,0.84167 -1.061766,0.63223 -3.401969,-1.39608 -0.952276,-0.82535 -1.165774,-0.94217 -1.165774,-0.63789 0,0.2049 -0.05115,0.62824 -0.113649,0.94079 -0.10518,0.52591 -0.02939,0.63027 1.016522,1.40025 0.621592,0.45755 1.75507,1.17494 2.518836,1.59411 1.394228,0.7652 3.956624,2.52078 4.736847,3.24538 0.721189,0.66978 1.87999,2.60784 2.835508,4.7423 1.615252,3.60818 6.553877,11.41151 8.296966,13.10967 0.829163,0.80778 1.01968,1.32197 0.685388,1.84971 -0.293516,0.46338 -1.062554,0.27261 -4.056697,-1.00617 -5.564277,-2.37653 -5.777342,-2.52062 -7.441618,-5.03253 -2.033744,-3.06958 -4.308568,-5.07567 -7.569089,-6.67501 -3.01662,-1.4797 -4.581031,-1.86974 -8.743012,-2.17974 -4.361641,-0.32492 -6.591773,0.15393 -11.471218,2.46321 -3.93478,1.86218 -4.172878,2.04626 -5.183387,4.0071 -1.211891,2.35164 -1.505766,3.50604 -1.393554,5.4741 0.173962,3.05088 1.561952,4.99287 4.754663,6.65245 3.546062,1.84325 6.614756,2.43497 11.493006,2.21614 3.341847,-0.14991 8.707828,-1.01666 10.392483,-1.67863 0.660281,-0.25943 1.989947,-0.68996 2.954814,-0.95672 2.431359,-0.67218 3.039515,-1.02431 3.874775,-2.24359 0.645227,-0.94186 0.894552,-1.12823 2.632381,-1.96768 2.694532,-1.30158 2.749888,-1.30573 4.069825,-0.30404 1.32741,1.00733 2.453346,1.62689 2.96091,1.6292 0.576651,0.002 4.131686,1.32698 5.626781,2.09611 0.956921,0.4923 1.932261,1.25744 3.450692,2.70705 1.164198,1.11144 2.78821,2.55505 3.608915,3.20806 0.820702,0.65298 1.827932,1.50078 2.238285,1.884 1.336363,1.24796 4.393618,3.17993 6.509595,4.11356 2.344303,1.0344 2.364439,1.04512 4.310499,2.29233 0.78489,0.50303 2.23875,1.19977 3.23077,1.54831 2.80166,0.98433 2.67455,0.90657 2.60811,1.59532 l -0.0584,0.60485 -1.95851,0.0947 c -1.59818,0.0772 -2.08112,0.1715 -2.62509,0.51197 -0.36662,0.22949 -1.05774,0.53498 -1.53581,0.67886 -1.006941,0.30306 -1.536552,0.21765 -4.232667,-0.68241 -1.661921,-0.55481 -1.939954,-0.59175 -4.476565,-0.59454 -3.005146,-0.004 -4.238422,0.20025 -8.393578,1.3851 -1.384938,0.39492 -3.357429,0.90374 -4.38331,1.13068 -4.219209,0.93341 -14.209547,5.45468 -18.593619,8.41482 -4.056252,2.7388 -7.562465,7.3333 -7.92327,10.38255 -0.114756,0.96983 0.43491,3.83383 1.05267,5.48497 0.518662,1.38623 1.83253,2.60466 4.454788,4.1312 3.414597,1.98777 6.742009,2.5968 10.240109,1.87422 z m -6.815482,-9.30438 c -1.264644,-0.39491 -1.752168,-0.7895 -1.685047,-1.36384 0.120236,-1.02886 1.832017,-1.29616 2.19453,-0.34266 0.141398,0.37188 0.331552,0.44893 1.331853,0.53962 2.625792,0.2381 6.341654,-0.52076 9.612303,-1.96305 3.214365,-1.41749 8.363842,-4.7055 12.694365,-8.10553 3.696451,-2.9022 4.434121,-3.41239 4.933783,-3.41239 0.447794,0 0.720337,0.28829 0.720337,0.762 0,0.2977 -6.658185,5.49713 -9.498053,7.41709 -5.845192,3.95181 -9.125488,5.52568 -13.287166,6.37513 -2.127024,0.43417 -5.770719,0.48279 -7.016905,0.0937 z M 49.026006,207.17854 c -2.630109,-0.3836 -5.432324,-1.43276 -7.673866,-2.87316 -0.609707,-0.3918 -1.352359,-0.76329 -1.650334,-0.82552 -1.138238,-0.23777 -1.111888,-1.35358 0.03468,-1.46834 0.428778,-0.043 1.007247,0.20343 2.281478,0.97164 3.473947,2.0943 5.974106,2.78543 10.069881,2.78374 4.431346,-0.001 7.671663,-0.74355 10.511923,-2.40617 1.619699,-0.94814 2.232498,-1.01214 2.321733,-0.24253 0.04639,0.40019 -0.111262,0.61296 -0.863119,1.16488 -3.215302,2.36027 -9.888758,3.64566 -15.032376,2.89546 z M 71.52363,177.13077 c -0.39804,-0.39803 -0.244868,-1.17663 0.971601,-4.93888 2.234829,-6.91175 3.490985,-11.74296 3.891109,-14.96525 0.258593,-2.08253 0.531534,-2.56615 1.208641,-2.14159 1.085828,0.68089 -0.09391,6.52976 -3.306735,16.39405 -0.801914,2.46214 -1.515251,4.72754 -1.585193,5.0343 -0.181953,0.79799 -0.718133,1.07866 -1.179423,0.61737 z m -8.626066,-21.61564 c -0.291229,-0.54417 -0.236771,-0.71528 2.458374,-7.72454 2.551594,-6.63595 3.020757,-7.67587 3.536965,-7.8397 0.53353,-0.16938 0.966984,0.25622 0.849888,0.83443 -0.05312,0.2623 -1.179898,3.16288 -2.503945,6.44568 -1.32405,3.28284 -2.612671,6.55631 -2.863601,7.27444 -0.354603,1.01481 -0.545463,1.31857 -0.856748,1.36362 -0.260839,0.0377 -0.477376,-0.0856 -0.620933,-0.35393 z M 45.52067,153.70177 c -3.62488,-4.01232 -7.98169,-12.3915 -7.98169,-15.3507 0,-0.73354 0.349591,-1.16721 0.860781,-1.06785 0.22931,0.0446 0.38793,0.40327 0.563557,1.27443 0.748353,3.71197 3.749003,9.21233 7.724307,14.15908 0.71067,0.88433 0.700126,1.57397 -0.02535,1.65829 -0.363556,0.0422 -0.645303,-0.12391 -1.141609,-0.67325 z m 76.07462,102.44762 c 3.90478,-0.80655 7.4261,-2.62242 9.53352,-4.9162 1.19246,-1.29792 2.02163,-4.34811 2.20975,-8.12892 0.14877,-2.99004 -0.01,-3.44471 -1.56594,-4.5083 -1.58912,-1.08566 -2.84462,-1.42376 -5.21924,-1.40548 -3.26731,0.0251 -5.68649,0.98755 -7.795,3.10104 -1.15117,1.15389 -1.43117,1.57947 -2.21868,3.37232 -0.49569,1.12846 -1.09083,2.6393 -1.32256,3.35743 -0.54969,1.70343 -1.08147,5.1373 -0.97201,6.27644 0.15063,1.56777 1.30763,2.7554 2.93955,3.01736 1.11309,0.17868 3.10576,0.10381 4.41061,-0.16579 z m 7.22045,-6.70558 c -0.14827,-0.38637 -9.4e-4,-1.01827 0.69497,-2.98212 0.82509,-2.32812 0.95328,-4.65419 0.32371,-5.87397 -0.50226,-0.97314 -1.34478,-1.59675 -2.39771,-1.77463 -1.3356,-0.22567 -1.41684,-1.39778 -0.0969,-1.39778 1.11902,0 2.30033,0.54832 3.07341,1.4266 0.94504,1.0736 1.3204,2.20246 1.3198,3.96917 -7.3e-4,2.00777 -1.01684,5.70785 -1.80752,6.58156 -0.36831,0.40697 -0.96275,0.43439 -1.1098,0.0512 z m 52.7854,5.53684 c 2.50392,-0.89534 4.80484,-2.74345 6.88145,-5.5272 2.01934,-2.70699 2.99544,-5.24397 3.01694,-7.84134 0.0296,-3.58059 -1.23126,-4.63027 -5.58081,-4.64582 -2.50724,-0.009 -3.70952,0.26162 -5.58571,1.25715 -2.21247,1.17402 -3.48228,2.98852 -5.37361,7.6787 -1.07554,2.66725 -1.33303,3.78439 -1.20016,5.20709 0.19094,2.04454 1.28527,3.79013 2.6409,4.21245 0.94809,0.29537 3.97656,0.0969 5.201,-0.34103 z m 6.19014,-13.44561 c -0.76516,-1.6968 -2.22738,-2.39269 -4.23977,-2.01777 -0.54462,0.10158 -1.28399,0.19473 -1.64305,0.207 -0.578,0.0189 -0.65283,-0.0309 -0.65283,-0.44377 0,-0.69693 1.1168,-1.17121 2.98918,-1.26949 1.84358,-0.0969 3.12384,0.36763 4.07413,1.47781 1.12154,1.31031 1.24451,2.77604 0.23289,2.77604 -0.3213,0 -0.51543,-0.18628 -0.76055,-0.72986 z m 3.25088,-7.83909 c 0.1132,-0.21124 0.17699,-0.38418 0.14189,-0.38418 -0.11377,0 -1.86024,2.4416 -1.78965,2.50189 0.0376,0.0322 0.3202,0.14042 0.62795,0.24046 l 0.55959,0.18206 0.12727,-1.07803 c 0.07,-0.59292 0.21989,-1.25092 0.33295,-1.46223 z m 46.84435,0.12608 c 0.57572,-0.28187 1.61086,-1.02942 2.30036,-1.6612 1.10388,-1.01152 1.38341,-1.41791 2.34048,-3.40295 2.21587,-4.59582 2.39904,-6.09893 1.21812,-9.99497 -1.04434,-3.44534 -1.36146,-4.02387 -2.99709,-5.46746 -0.77732,-0.68609 -1.51533,-1.2474 -1.63997,-1.2474 -1.26925,0 -3.49295,0.46783 -4.39993,0.92568 -1.6703,0.84315 -2.39792,2.10987 -2.90423,5.056 -0.16621,0.96747 -0.52519,2.80827 -0.79763,4.09061 -0.41545,1.95554 -0.49642,2.81285 -0.50199,5.31591 -0.006,2.84532 0.017,3.03349 0.48722,4.03789 0.58771,1.25359 1.77139,2.497 2.62316,2.75549 1.13971,0.34593 3.11801,0.1571 4.2715,-0.4076 z m -5.15163,-15.80941 c -0.65162,-2.05313 4.00258,-4.70093 6.45899,-3.67458 0.88805,0.37105 1.70223,1.43807 1.623,2.12701 -0.0957,0.83281 -0.66066,0.78343 -1.50569,-0.13173 -0.71417,-0.77348 -0.75047,-0.78823 -1.69635,-0.69059 -1.59529,0.1647 -3.47969,1.24698 -3.47969,1.99864 0,0.74431 -1.18235,1.0578 -1.40026,0.37127 z m -94.69394,11.41434 c -3.55879,-2.83494 -6.50598,-7.28951 -7.11799,-10.75852 l -0.26304,-1.491 -0.32215,0.74612 c -0.82369,1.90769 -2.50167,3.9169 -4.92731,5.89995 l -0.82063,0.6709 0.66694,0.87348 c 0.94688,1.24007 1.90819,2.27964 2.40917,2.60524 0.28369,0.18439 1.1615,0.32044 2.57543,0.39913 2.16855,0.12069 3.943,0.49935 6.15527,1.31355 1.03581,0.3812 2.30876,0.74189 2.85673,0.80935 0.0837,0.0106 -0.46191,-0.47039 -1.21242,-1.0682 z m -15.84723,-2.71822 -0.98274,-1.23305 -0.99513,0.0968 c -0.58707,0.0571 -1.16402,0.009 -1.40696,-0.12013 -0.73494,-0.38671 -3.7001,-3.40457 -4.08909,-4.1618 l -0.37834,-0.7365 -0.34255,0.64325 c -0.1884,0.3538 -0.34606,0.98289 -0.35036,1.39798 -0.006,0.67211 0.14739,0.94007 1.41007,2.44784 l 1.41789,1.69309 1.66226,0.41551 c 1.47298,0.36819 4.82526,0.92488 4.97955,0.82692 0.0319,-0.0212 -0.3841,-0.59175 -0.9246,-1.2699 z m 2.88974,0.77417 c -0.6646,-0.70932 -1.87145,-2.30314 -1.98601,-2.62281 -0.0436,-0.12203 -0.14519,-0.16049 -0.22554,-0.0856 -0.0804,0.0749 0.0664,0.45254 0.32594,0.83936 0.52392,0.78058 2.11273,2.47521 2.32061,2.47521 0.0731,0 -0.12256,-0.2728 -0.435,-0.60621 z m 57.60535,-0.64947 c 0.0526,-0.45462 0.15965,-0.5261 0.99164,-0.6626 0.51293,-0.0841 2.27559,-0.47777 3.91701,-0.87475 3.75808,-0.90888 5.54654,-1.25917 7.57218,-1.48307 4.22316,-0.46678 7.44299,-2.56944 7.44299,-4.86049 0,-0.40596 -0.1533,-0.62694 -0.64575,-0.93133 -0.6069,-0.37509 -1.00264,-0.40929 -6.57832,-0.56825 -3.91102,-0.11137 -6.38093,-0.26347 -7.24825,-0.44592 -2.00035,-0.42078 -6.39265,-1.9113 -7.97538,-2.7064 l -1.41005,-0.70837 0.29776,0.58018 c 0.16367,0.3191 0.56049,0.9999 0.88156,1.51283 0.9419,1.50467 1.04167,1.86813 1.04167,3.79574 0,1.74148 -0.0322,1.886 -0.74611,3.36254 -0.41035,0.84856 -0.74646,1.6415 -0.74689,1.76211 0,0.12054 -0.25001,0.59492 -0.55457,1.05402 -0.45653,0.68817 -0.50621,0.86135 -0.28285,0.98636 0.22086,0.12351 2.91367,0.60936 3.76359,0.67888 0.12136,0.0106 0.24728,-0.21123 0.27977,-0.49148 z m -6.26914,-0.67574 c 0.66199,-0.68345 1.29834,-1.65983 2.01569,-3.09284 1.01597,-2.02954 1.0483,-2.14089 1.0483,-3.61216 0,-1.48438 -0.0189,-1.55133 -0.90282,-3.01581 -0.49656,-0.82375 -1.13576,-1.90688 -1.42041,-2.40694 -0.28469,-0.50009 -0.82268,-1.24846 -1.19558,-1.66307 -0.83596,-0.92955 -5.25089,-4.30015 -6.69993,-5.11514 -1.50947,-0.84899 -3.43383,-1.24586 -5.4282,-1.11951 -1.95535,0.12393 -3.08925,0.50305 -4.10529,1.37273 -1.04486,0.89435 -2.4263,2.87046 -2.74352,3.92447 -0.38405,1.2761 -0.3294,3.33911 0.11434,4.31698 1.43731,3.16724 6.47291,8.28806 10.08795,10.25869 1.84591,1.0062 2.35767,1.1103 5.56804,1.13263 l 2.69403,0.0189 z m -6.35546,0.15075 c -0.10243,-0.0285 -0.4081,-0.10062 -0.67889,-0.15984 -0.56407,-0.12365 -0.80007,-0.56088 -0.54693,-1.01321 0.13513,-0.24131 0.4568,-0.31151 1.44586,-0.31539 1.08629,-0.004 1.48531,-0.10841 2.73121,-0.71296 0.80247,-0.38938 1.78628,-1.03519 2.18622,-1.43514 0.79917,-0.79913 1.64845,-2.34746 2.14971,-3.91913 0.17825,-0.55861 0.40537,-1.12058 0.50486,-1.24884 0.24847,-0.32024 0.78632,-0.29258 1.07505,0.0554 0.52236,0.6294 -0.80574,4.05667 -2.20589,5.69242 -0.8841,1.03291 -2.56465,2.10917 -4.01436,2.57094 -1.16863,0.37223 -2.30577,0.581 -2.64684,0.48593 z m -58.84829,-0.93323 c 0,-0.31789 -0.67103,-1.31239 -1.19731,-1.7745 -0.83801,-0.73577 -3.5049,-4.63405 -5.09617,-7.44918 -1.48097,-2.62005 -3.24773,-6.62471 -4.15563,-9.41945 -0.33328,-1.02588 -0.64639,-1.93595 -0.69581,-2.02237 -0.127684,-0.22332 -0.848784,1.06802 -1.372875,2.45859 -0.73896,1.96066 -1.527968,2.68526 -3.364454,3.08979 l -0.49403,0.10886 0.74064,2.28612 c 0.407359,1.25736 1.117312,3.37728 1.577697,4.71094 l 0.837056,2.4248 1.714181,0.96074 c 2.052115,1.15015 7.236885,3.44164 8.802115,3.89026 0.61552,0.17635 1.41291,0.42897 1.77196,0.56125 0.76574,0.28206 0.93263,0.31325 0.93263,0.17423 z m 9.89996,-1.45798 c 0.36686,-0.13106 1.34709,-0.77799 2.17827,-1.43739 0.83119,-0.6594 2.04992,-1.58982 2.70825,-2.06762 1.55082,-1.12553 2.81614,-2.81076 3.30936,-4.40765 0.79319,-2.568 0.91214,-6.98959 0.25581,-9.50938 -0.35366,-1.35777 -1.10461,-2.52353 -2.45364,-3.80886 -0.94941,-0.90459 -1.24303,-1.06568 -2.6177,-1.43604 -2.25724,-0.60816 -2.33883,-0.57548 -2.51025,1.00523 -0.16449,1.51683 -1.24128,6.07554 -1.92215,8.13755 -0.25835,0.78247 -0.77024,1.91563 -1.13751,2.51807 -2.73449,4.48544 -3.23514,5.45664 -3.22973,6.26524 0.006,1.0339 0.62797,2.0414 2.18842,3.55012 1.61346,1.56 1.9013,1.66605 3.23087,1.19073 z m -3.88455,-2.1554 c -0.65466,-0.41268 -0.81438,-1.10181 -0.34556,-1.4909 0.20213,-0.16769 0.42925,-0.12849 1.01115,0.17487 0.66132,0.3447 0.84644,0.36567 1.55796,0.17656 1.9671,-0.52304 3.71357,-2.0058 5.56381,-4.72368 0.88101,-1.29412 1.33089,-1.60529 1.78093,-1.23178 0.46212,0.38354 0.30613,0.90639 -0.70841,2.37467 -2.22803,3.22442 -4.52539,4.86597 -7.03257,5.02506 -0.99785,0.0632 -1.33195,0.009 -1.82731,-0.30466 z m -5.14116,-1.35848 c 0.63843,-1.23068 1.47433,-2.51531 2.03292,-3.12429 0.52178,-0.56885 1.31915,-1.66377 1.77192,-2.43318 0.45278,-0.76941 1.08958,-1.79644 1.41512,-2.28229 0.96195,-1.43566 1.96772,-4.56548 2.86532,-8.91633 0.34698,-1.68202 0.39045,-2.37604 0.31494,-5.02897 -0.0807,-2.84054 -0.14557,-3.30037 -0.84027,-5.96874 -0.41396,-1.59014 -1.14568,-3.89836 -1.62599,-5.12943 -0.48033,-1.23105 -1.27728,-3.32944 -1.771,-4.66309 -0.49373,-1.33364 -1.1917,-3.10632 -1.55103,-3.93932 -0.51593,-1.19592 -1.63797,-4.39561 -2.10309,-5.99728 -0.10887,-0.37455 -3.27467,1.88383 -4.54594,3.24284 -2.29745,2.45596 -4.30179,5.66005 -5.64589,9.02532 -0.77811,1.9482 -0.78222,1.97123 -0.78207,4.3833 7e-5,1.33363 0.0299,3.26417 0.0662,4.29004 0.0505,1.42898 -0.0276,2.26832 -0.33408,3.58862 -0.6834,2.94389 -0.58069,4.19633 0.65165,7.94638 1.22674,3.733 2.78557,7.38387 4.38992,10.2814 1.32844,2.39925 4.27955,6.81503 4.55457,6.81503 0.029,0 0.54051,-0.94053 1.13685,-2.09001 z m -1.79053,-10.1555 c -0.91507,-0.64093 -2.42817,-4.79983 -3.11145,-8.5519 -0.46423,-2.54938 -0.46882,-8.27579 -0.01,-11.28469 0.45934,-3.00598 0.99514,-5.10011 1.69414,-6.62161 0.67543,-1.47016 1.01112,-1.8278 1.63288,-1.73967 0.63055,0.0895 0.62942,0.70022 -0.004,1.95666 -1.98513,3.94011 -2.77296,12.93812 -1.62318,18.5384 0.45027,2.19323 1.57532,5.50805 2.16434,6.37706 0.63014,0.92969 0.63535,0.95738 0.25211,1.34063 -0.36673,0.36672 -0.45323,0.36543 -0.99623,-0.0149 z m -17.112815,5.15759 c -0.390361,-1.51674 -0.624196,-2.83183 -0.588009,-3.30704 0.05531,-0.72619 0.01542,-0.80682 -0.500551,-1.01293 -1.153403,-0.46077 -5.052722,-3.06303 -6.235418,-4.1613 -0.674618,-0.62645 -1.898064,-1.52418 -2.718771,-1.99493 -0.820705,-0.47076 -1.809612,-1.04397 -2.197571,-1.27378 l -0.705382,-0.4179 0.363384,0.90791 c 0.767569,1.91775 0.947276,2.23346 1.639513,2.88054 0.722544,0.67534 2.403457,1.92121 4.44401,3.29386 1.360716,0.9153 3.196697,2.80308 4.669254,4.80101 1.11161,1.50818 2.336506,2.94826 2.427666,2.85419 0.02744,-0.0283 -0.241686,-1.18467 -0.598125,-2.56963 z m 145.742825,-6.29132 c 0.22615,-0.58423 0.39341,-1.08004 0.37168,-1.10179 -0.0218,-0.0218 -0.31501,0.45772 -0.65168,1.06547 -0.39096,0.70572 -0.52523,1.10381 -0.37165,1.10178 0.13214,-10e-4 0.42551,-0.4812 0.65165,-1.06546 z m -12.49386,-0.082 c 1.86974,-0.69954 8.04155,-5.15472 11.42984,-8.25074 4.394,-4.01496 4.83232,-4.60992 2.68721,-3.64747 -0.6764,0.30348 -1.42464,0.55178 -1.66281,0.55178 -0.30149,0 -0.63227,0.27138 -1.08877,0.89326 -1.31233,1.78776 -4.89906,4.79441 -6.76417,5.67018 -1.54229,0.72421 -3.90968,1.15502 -5.63775,1.02603 -1.04207,-0.0779 -1.70431,-0.2618 -2.77857,-0.77196 -0.7757,-0.36838 -1.4486,-0.63154 -1.49533,-0.58483 -0.0467,0.0467 0.0435,0.48909 0.20044,0.98302 0.43298,1.36226 0.68519,2.77028 0.68519,3.82515 v 0.9502 l 1.69241,-0.12769 c 0.95561,-0.0721 2.14509,-0.29712 2.73228,-0.51683 z M 94.999794,208.6884 c 1.149382,-0.21796 1.755698,-0.70721 2.053824,-1.65734 0.115966,-0.36962 0.671489,-1.60548 1.234426,-2.74638 l 1.023556,-2.07433 0.103074,-2.60191 c 0.153376,-3.87432 -0.335676,-6.78435 -1.576399,-9.38005 -0.510773,-1.06856 -1.009419,-1.73046 -2.129762,-2.82695 -1.848784,-1.80946 -2.978349,-2.39939 -4.594222,-2.39939 -2.105436,0 -5.135725,1.27188 -6.285289,2.63804 -0.723592,0.85994 -1.839228,4.71676 -2.15045,7.43425 -0.131052,1.14426 -0.09657,1.63661 0.189397,2.70459 0.704849,2.63236 1.57837,4.53181 2.703295,5.87827 0.377621,0.45196 0.930944,1.17694 1.229607,1.61103 0.562041,0.8169 2.05763,1.96735 3.87525,2.98096 1.168736,0.65176 2.49345,0.78634 4.323767,0.43921 z M 84.74082,194.15302 c -0.287828,-0.28783 -0.384348,-0.62371 -0.384348,-1.33748 0,-2.84709 4.707488,-7.49301 6.790017,-6.70121 0.643843,0.24477 1.004824,1.00349 0.669617,1.40737 -0.181575,0.21882 -0.435941,0.26346 -1.010028,0.17741 -0.696456,-0.10457 -0.867867,-0.0405 -1.855827,0.69138 -1.23976,0.9185 -2.815949,2.8968 -3.132887,3.93216 -0.183034,0.5979 -0.1669,0.75094 0.111536,1.05863 0.761866,0.84183 -0.377731,1.58215 -1.188085,0.77178 z m 144.09122,9.23942 c 1.56247,-0.41799 2.29304,-0.8063 3.96722,-2.10863 3.2,-2.48922 4.18122,-3.62637 4.10505,-4.75731 -0.0233,-0.34482 0.0189,-0.7262 0.0941,-0.84755 0.56729,-0.9179 -3.43052,-4.1551 -6.91032,-5.59568 -1.50014,-0.62102 -1.79495,-0.67934 -3.41391,-0.67534 -1.52976,0.004 -2.00142,0.088 -3.45069,0.61556 -4.63354,1.68713 -6.80811,3.56452 -6.80811,5.87775 0,1.2761 0.40353,2.03573 1.90973,3.59501 1.90349,1.97059 4.55808,3.68276 6.43798,4.15235 0.83449,0.20848 2.79314,0.0852 4.06893,-0.25616 z m 3.29798,-2.65941 c -0.49909,-0.20129 -0.24287,-0.96447 0.50248,-1.49643 1.42236,-1.01519 1.83587,-2.4048 1.12833,-3.7917 -0.69249,-1.35736 -1.48701,-1.94645 -3.89621,-2.88863 -2.24347,-0.87736 -2.59739,-1.15608 -2.33533,-1.83898 0.17634,-0.45945 1.00637,-0.37777 2.60182,0.25599 2.23298,0.88703 3.13764,1.40465 3.8679,2.21294 2.2349,2.47377 2.11063,5.17109 -0.32753,7.10869 -0.6786,0.5393 -1.03779,0.64137 -1.54146,0.43812 z m -150.131426,0.9578 c -1.021307,-2.23084 -1.230803,-5.75292 -0.53716,-9.03091 0.384268,-1.81597 1.175681,-4.41093 1.595977,-5.23305 0.628588,-1.22955 2.152947,-2.40223 4.114921,-3.16559 l 1.280844,-0.49832 -0.602793,-0.58233 c -0.97119,-0.93817 -2.076176,-1.34071 -3.693213,-1.34537 -2.620631,-0.009 -5.213363,1.11297 -7.004003,3.02718 -1.396694,1.49305 -1.901277,2.55052 -2.16789,4.54312 -0.4769,3.56432 0.85122,7.08903 3.993413,10.59808 0.929649,1.03822 2.991609,2.71819 3.33622,2.71819 0.08562,0 -0.05672,-0.46395 -0.316316,-1.031 z m -4.2747,-8.56073 c -0.30014,-0.22011 -0.359517,-0.48329 -0.347159,-1.53881 0.02676,-2.28668 0.948302,-5.09573 2.416005,-7.36455 1.216531,-1.88058 2.504793,-2.4845 3.636238,-1.70468 0.939805,0.64773 1.173017,1.29793 0.627827,1.75041 -0.253844,0.2106 -0.408819,0.18586 -1.013453,-0.16219 l -0.713784,-0.41079 -0.546201,0.4596 c -0.992622,0.83523 -2.627644,4.45495 -2.933458,6.49427 -0.09224,0.61503 -0.05097,0.86299 0.174851,1.05036 0.416712,0.34586 0.367231,0.8134 -0.136134,1.28629 -0.50713,0.47641 -0.67802,0.49697 -1.164733,0.13997 z M 53.1573,183.04956 c 1.298755,-0.39704 1.801207,-0.88928 2.371266,-2.3231 0.807854,-2.03189 0.618125,-3.35804 -1.026045,-7.17174 -0.904433,-2.09786 -1.721636,-3.29518 -3.627084,-5.31432 -3.6888,-3.90887 -6.433161,-5.33527 -12.097992,-6.28802 -3.205092,-0.53904 -4.30312,-0.19073 -5.715515,1.8132 -1.197402,1.6989 -1.550834,2.6653 -1.558964,4.26282 -0.0316,6.21059 5.181978,12.05065 12.992343,14.5535 2.911173,0.93288 6.505376,1.12693 8.661991,0.46766 z m -6.478649,-2.50706 c -1.347972,-0.27767 -1.974343,-0.91631 -1.755179,-1.78952 0.262794,-1.04706 1.568654,-1.21305 1.568654,-0.1994 0,1.26179 2.326852,0.72459 4.117807,-0.95065 1.099785,-1.0287 1.586126,-1.88447 1.860209,-3.27323 0.384337,-1.94733 0.338698,-1.85283 0.86443,-1.78988 0.760068,0.0909 0.914659,0.51432 0.681934,1.86728 -0.290205,1.68715 -0.918001,2.89071 -2.133637,4.09046 -1.644422,1.62293 -3.573398,2.38092 -5.204218,2.04494 z m 20.428545,-0.3423 c 0.101701,-1.71146 0.06084,-2.56128 -0.186164,-3.87151 -0.608904,-3.22999 -0.662067,-3.76557 -0.851687,-8.5801 -0.11862,-3.01174 -0.126136,-5.30908 -0.01988,-6.06203 0.09416,-0.66681 0.142137,-1.24411 0.106658,-1.28287 -0.127591,-0.13934 -2.79703,1.64257 -3.404568,2.27258 -0.825853,0.85639 -0.936354,1.7251 -0.41582,3.26905 0.219013,0.64961 0.481775,2.07651 0.583913,3.1709 0.506754,5.42977 0.753928,6.49792 2.554497,11.03889 1.426934,3.59869 1.421831,3.59854 1.632994,0.045 z m -6.897088,-23.27848 c -0.07135,-0.47579 -0.171698,-0.82309 -0.222987,-0.77182 -0.0513,0.0514 -0.03489,0.48257 0.03646,0.95835 0.07135,0.47578 0.171698,0.8231 0.222986,0.77181 0.0513,-0.0512 0.03489,-0.48254 -0.03646,-0.95834 z m -0.821655,-6.1468 -0.167216,-1.11914 -0.02274,1.60878 c -0.01253,0.88481 0.04019,1.89205 0.11714,2.23827 0.123686,0.55653 0.145691,0.49973 0.189968,-0.48962 0.02753,-0.61553 -0.02519,-1.62276 -0.117138,-2.23829 z m -1.748828,-1.95822 c -0.07346,-1.75412 -0.162076,-2.15955 -0.848079,-3.88025 -0.697825,-1.75033 -1.130161,-3.4428 -1.42803,-5.5904 -0.131643,-0.94916 0.184641,-7.82714 0.469423,-10.20788 0.11045,-0.92331 0.325272,-2.22432 0.477395,-2.89113 0.400532,-1.75567 0.371142,-3.31878 -0.08163,-4.34239 -0.270017,-0.6104 -1.238526,-1.70116 -3.405964,-3.83584 -2.587458,-2.54836 -3.085754,-2.96104 -3.420594,-2.83289 -0.483203,0.18481 -1.535157,1.47378 -1.883658,2.30785 -0.142287,0.34055 -0.39559,0.73278 -0.562898,0.87161 -0.987084,0.81921 -2.515216,5.52071 -2.515216,7.7384 0,2.32238 1.022461,5.17819 2.867199,8.00826 1.442547,2.21307 2.433842,3.38414 5.280574,6.23825 1.443746,1.4475 2.53852,2.70083 2.606815,2.98439 0.06477,0.26888 0.411166,1.07641 0.769795,1.79452 0.750428,1.50269 1.34484,3.43552 1.347816,4.38272 0.0012,0.35939 0.06184,0.98917 0.134908,1.39952 0.20386,1.14482 0.289755,0.18606 0.192144,-2.14474 z m -5.902763,-13.78105 c -0.481584,-0.48158 -1.405389,-2.9565 -1.818441,-4.87168 -0.248348,-1.1515 -0.342859,-2.38571 -0.345295,-4.50924 -0.0032,-2.68562 0.02867,-2.96669 0.38982,-3.45069 0.240105,-0.32178 0.566885,-0.52692 0.839358,-0.52692 0.397194,0 0.439482,0.0716 0.385166,0.65284 -0.03356,0.35906 -0.101095,1.66637 -0.150088,2.90511 -0.103946,2.62867 0.306078,5.07979 1.252559,7.48784 0.632115,1.60825 0.718339,2.25219 0.334149,2.49555 -0.370798,0.23488 -0.495182,0.20935 -0.887237,-0.1829 z m 82.740648,51.16298 c -0.081,-0.0849 -2.8508,-0.15797 -6.15528,-0.1624 l -6.00814,-0.009 -0.9295,-0.46632 c -1.54792,-0.77658 -1.69867,-1.21758 -1.59403,-4.6631 0.23006,-7.57438 -0.14195,-23.32315 -0.63885,-27.04594 -0.87022,-6.51968 -0.8953,-6.81609 -0.78951,-9.32623 0.0585,-1.38494 0.31805,-4.09114 0.57707,-6.01376 0.25899,-1.92262 0.60134,-5.02824 0.76078,-6.90137 0.15944,-1.87313 0.36936,-3.95128 0.46649,-4.6181 0.36473,-2.50374 0.58193,-11.50425 0.74047,-30.683186 0.12822,-15.507514 0.2257,-20.395052 0.45212,-22.662661 1.14501,-11.466289 1.2824,-13.661053 1.18504,-18.932164 -0.0677,-3.660167 -0.18924,-5.38521 -0.56564,-8.020535 -0.61761,-4.324378 -0.89503,-8.338981 -0.85066,-12.310573 0.0195,-1.743992 -0.10897,-5.437165 -0.28553,-8.207058 -0.17652,-2.769868 -0.2994,-6.421072 -0.27309,-8.113778 0.0331,-2.127159 -0.0213,-3.203468 -0.17616,-3.485061 -0.35555,-0.646603 -0.28285,-1.999608 0.12741,-2.370867 0.1933,-0.174914 1.49075,-0.733508 2.88326,-1.241315 2.82289,-1.0294306 4.09599,-1.1597996 6.46458,-0.661994 2.70263,0.56802 3.75558,0.553499 11.85168,-0.163451 1.7481,-0.1548056 5.7157,-0.3647976 8.8169,-0.4666506 3.94337,-0.129518 6.43653,-0.304208 8.29286,-0.581062 4.52443,-0.674774 5.7091,-0.504754 6.55316,0.9404556 0.51649,0.884354 0.58726,2.979714 0.2271,6.724286 -0.16282,1.692703 -0.4759,5.427845 -0.6958,8.300309 -0.38969,5.090447 -0.39224,5.357257 -0.10052,10.538586 0.66701,11.844809 0.73268,13.558563 0.61721,16.098563 -0.17125,3.765173 -0.75619,8.215007 -1.64769,12.532853 -0.42362,2.051779 -0.80466,4.024265 -0.84675,4.383309 l -0.0766,0.652836 0.38693,-0.466293 c 0.21281,-0.256469 1.07834,-1.542942 1.9234,-2.858806 8.043,-12.52414 9.63774,-14.638552 25.99765,-34.46907 6.59422,-7.993129 7.36174,-9.021286 9.76787,-13.085263 2.52855,-4.270745 3.64941,-5.319245 5.87758,-5.498101 1.43201,-0.114944 2.60983,0.136048 5.00547,1.066695 3.40911,1.324328 13.75621,4.865545 17.28012,5.914001 1.89789,0.564663 4.58383,1.390019 5.96878,1.834126 1.38494,0.4441 3.02169,0.863024 3.6372,0.93094 1.66539,0.183751 2.32922,0.436709 2.52969,0.963922 0.25588,0.673029 0.0297,0.996086 -2.52392,3.606731 -3.70106,3.783527 -6.5951,7.712345 -10.30485,13.989289 -0.81852,1.384926 -2.47933,4.19679 -3.6907,6.248549 -4.84035,8.198365 -14.61556,24.232901 -16.29677,26.731944 -2.46087,3.658073 -4.86976,6.418427 -10.39952,11.91685 -3.01324,2.996166 -5.47858,5.48956 -5.47858,5.540905 0,0.05138 0.81838,0.51457 1.81861,1.029428 1.00023,0.514847 2.32223,1.344733 2.93776,1.844177 2.00594,1.62767 7.13585,7.753084 11.7442,14.023264 1.31949,1.79531 3.32969,4.52113 4.46711,6.05743 1.87421,2.53151 4.22543,6.00764 7.84961,11.60523 2.81382,4.34601 4.61831,6.2423 16.13496,16.9558 8.08016,7.51666 7.61706,7.09646 11.37796,10.32436 5.01623,4.30532 7.31909,5.6621 10.44535,6.15426 1.82759,0.2877 2.41892,0.53029 2.62705,1.07769 0.22199,0.58394 10e-4,0.98049 -0.99476,1.78982 -2.03459,1.6527 -8.98746,5.6057 -18.32618,10.41925 -5.68616,2.93087 -9.81001,5.62995 -16.02682,10.48962 -1.00459,0.78529 -2.14988,1.59273 -2.54503,1.79436 -0.96048,0.48999 -2.21728,0.4802 -2.85601,-0.0221 -0.72645,-0.5714 -2.75187,-3.49532 -5.35124,-7.725 -3.90951,-6.36155 -4.52384,-7.091 -16.1008,-19.11749 -4.66584,-4.84703 -6.89587,-7.61537 -11.11969,-13.80399 -3.37615,-4.94661 -5.22289,-7.4092 -7.50935,-10.01359 -4.96778,-5.65861 -7.8333,-9.28799 -9.83956,-12.46253 -1.47847,-2.33944 -2.19595,-3.3148 -3.98359,-5.41537 -0.82601,-0.97061 -1.81578,-2.41622 -2.35842,-3.44453 -0.73143,-1.3861 -0.91435,-1.62979 -0.84002,-1.11914 1.0103,6.94186 1.03473,7.67542 0.83787,25.18073 -0.0813,7.22623 -0.073,7.44289 0.43413,11.2847 0.97588,7.39366 1.43721,12.64112 1.71365,19.49174 0.32,7.93062 0.37594,8.64908 0.85535,10.98799 0.49036,2.39218 0.4716,3.09295 -0.098,3.66261 -0.44332,0.44332 -0.54234,0.45784 -3.12427,0.45848 -3.41457,0 -8.13968,0.30077 -10.4072,0.66057 -0.97458,0.15457 -3.66053,0.65273 -5.96875,1.10683 -2.30823,0.45412 -4.86829,0.90847 -5.68898,1.00969 -2.13376,0.26323 -7.9931,0.46704 -8.16768,0.28413 z m 7.32831,-1.77151 c 0.97459,-0.10863 3.87207,-0.60804 6.43886,-1.10958 6.3342,-1.23764 8.56097,-1.50242 13.83023,-1.64462 2.4793,-0.0668 4.55941,-0.17338 4.62249,-0.23644 0.0631,-0.0632 -0.0514,-0.86055 -0.25435,-1.772 -0.42908,-1.92675 -0.69701,-5.07176 -0.85625,-10.05072 -0.24033,-7.51347 -0.67382,-12.65963 -1.77552,-21.07719 -0.55331,-4.22781 -0.65021,-8.88146 -0.37666,-18.09281 0.25322,-8.52681 0.19453,-10.19343 -0.54728,-15.53372 -0.61047,-4.395 -0.65048,-5.15048 -0.29181,-5.50914 0.52002,-0.52003 1.19408,-0.59198 1.74931,-0.18671 0.27815,0.20301 1.00931,1.3421 1.66182,2.589 0.80845,1.54493 1.62741,2.76893 2.67527,3.99849 0.8306,0.97458 2.39875,3.11492 3.48477,4.75635 2.9079,4.39494 4.95938,7.00722 10.10761,12.87065 2.44546,2.7852 3.81915,4.61432 7.63402,10.16505 5.03501,7.32612 5.69193,8.10341 15.9284,18.84815 2.95304,3.09967 5.91827,6.31714 6.58946,7.14993 1.37877,1.7108 3.26047,4.50987 5.35331,7.96322 1.71553,2.83072 4.01582,6.1309 4.46529,6.40615 0.45975,0.28158 1.45177,-0.28015 3.96068,-2.24277 2.33263,-1.82467 7.52977,-5.55667 9.60838,-6.89963 0.76942,-0.49711 3.49733,-1.98527 6.06203,-3.30703 7.58229,-3.90768 15.01198,-8.03436 16.8757,-9.37333 1.08231,-0.77756 1.03837,-0.88298 -0.45835,-1.09946 -1.94556,-0.28135 -4.35134,-1.47235 -6.85378,-3.39303 -1.98933,-1.52686 -7.35627,-6.19776 -10.69896,-9.31145 -17.68254,-16.47107 -17.52081,-16.30041 -21.92419,-23.13651 -3.34074,-5.18638 -3.7317,-5.74918 -8.73004,-12.56721 -6.48959,-8.85223 -11.60006,-15.129956 -13.75906,-16.901726 -0.48576,-0.398626 -1.85044,-1.228406 -3.03257,-1.843944 -2.24366,-1.16821 -2.64264,-1.567048 -2.47021,-2.469139 0.0661,-0.344962 1.87487,-2.269198 5.82534,-6.196766 5.87746,-5.843343 8.25884,-8.579952 10.70295,-12.299536 2.2419,-3.411795 13.05518,-21.228341 17.74497,-29.23752 5.42287,-9.261101 8.11975,-13.103709 11.97399,-17.06107 l 2.2924,-2.353733 -1.16891,-0.130675 c -0.64289,-0.0719 -2.30203,-0.496722 -3.68696,-0.944007 -1.38493,-0.447258 -3.94643,-1.233797 -5.69215,-1.747854 -1.74574,-0.514055 -4.89335,-1.534369 -6.99466,-2.267367 -2.10133,-0.732995 -4.99564,-1.737502 -6.43189,-2.232236 -1.43623,-0.494737 -3.53464,-1.256408 -4.66311,-1.692602 -2.51097,-0.970582 -4.04842,-1.092833 -5.14749,-0.409308 -0.82116,0.510671 -1.9226,1.997825 -3.54304,4.78367 -2.18409,3.754841 -3.00998,4.847371 -10.5211,13.917763 -14.05182,16.968941 -17.74448,21.833832 -23.67568,31.191397 -1.60773,2.536448 -3.35095,5.079834 -3.87386,5.651958 -0.85628,0.936965 -1.01696,1.034655 -1.61835,0.983991 -1.36148,-0.114607 -1.41773,-1.299349 -0.30386,-6.398065 0.82384,-3.77084 1.51363,-8.497 1.78318,-12.217323 0.21018,-2.900018 0.19263,-3.509994 -0.39801,-13.896018 -0.50341,-8.851774 -0.47603,-9.853167 0.59795,-21.88068 0.40966,-4.587585 0.36719,-5.800026 -0.22393,-6.391136 -0.46448,-0.464482 -1.25693,-0.461018 -4.46313,0.01946 -1.63801,0.245492 -4.34337,0.441146 -7.74073,0.55982 -5.36633,0.187451 -7.93171,0.346251 -13.43337,0.831571 -4.23301,0.373404 -6.03782,0.353438 -8.29666,-0.0918 -1.04097,-0.205172 -2.20126,-0.374029 -2.57841,-0.375226 -0.80127,-0.0026 -4.63855,1.261572 -4.75494,1.566423 -0.12499,0.327292 0.20852,2.455039 0.71463,4.559342 0.52314,2.175081 0.58937,4.128485 0.26794,7.902158 -0.13519,1.58701 -0.13775,5.227003 -0.009,11.798396 0.15938,8.091668 0.26145,10.211237 0.68717,14.269083 l 0.5,4.765763 -0.60381,5.688982 c -0.33209,3.128936 -0.67687,6.65424 -0.76619,7.833991 -0.0893,1.179774 -0.24731,2.858491 -0.3511,3.730476 -0.3909,3.284057 -0.5523,10.14647 -0.65587,27.885347 -0.10692,18.31048 -0.23181,22.88425 -0.73535,26.92975 -0.14843,1.19238 -0.32191,2.9234 -0.38556,3.84668 -0.0637,0.9233 -0.37483,3.69318 -0.69155,6.15529 -0.75433,5.864 -0.76841,8.59704 -0.0686,13.33645 0.42822,2.90063 0.53452,4.43189 0.66683,9.60599 0.0866,3.38539 0.25218,7.56112 0.36799,9.27935 0.15223,2.25887 0.15581,4.00031 0.0135,6.28799 -0.10864,1.74012 -0.19769,3.92256 -0.19769,4.84981 0,2.12072 0.20131,2.3942 1.95848,2.66057 1.08332,0.16431 17.01458,0.11504 18.55913,-0.0572 z M 56.444715,118.00149 c -0.319896,-0.33788 -0.675639,-0.79763 -0.790539,-1.02172 -0.351006,-0.68454 -0.229937,-2.10111 0.371708,-4.34893 0.490198,-1.83148 0.586583,-2.56767 0.659376,-5.03616 0.04688,-1.59011 0.01797,-3.68852 -0.06444,-4.6631 -0.145393,-1.72136 -0.165652,-1.78002 -0.709252,-2.05371 -0.307763,-0.15498 -1.135469,-0.59914 -1.839341,-0.987114 -1.218899,-0.67183 -1.301306,-0.69129 -1.732539,-0.40873 -0.249027,0.16325 -0.848228,0.811864 -1.331566,1.441544 -0.483336,0.62966 -1.472508,1.8217 -2.198156,2.64894 -0.725649,0.82726 -1.832772,2.18501 -2.460274,3.01723 -1.740961,2.30897 -3.374351,3.57927 -6.054129,4.70831 -1.024413,0.43159 -1.416524,0.49203 -3.129645,0.48234 -2.269701,-0.0127 -3.438357,-0.30581 -5.676732,-1.42316 -3.596727,-1.79539 -6.544275,-4.27196 -7.765766,-6.5249 -0.586266,-1.08133 -0.640053,-1.31378 -0.640053,-2.76598 0,-1.360344 0.07446,-1.737064 0.52431,-2.653194 1.013021,-2.062926 2.80035,-3.057942 6.004025,-3.342474 1.581153,-0.14041 2.308737,-0.09956 4.77714,0.268331 3.008925,0.44845 3.265776,0.44711 7.160388,-0.03723 0.820705,-0.102117 2.121709,-0.404774 2.89112,-0.672691 1.174163,-0.408838 1.743571,-0.490063 3.543953,-0.505391 2.366601,-0.02117 2.81278,0.09829 3.860618,1.024694 0.689921,0.609996 2.370125,1.441361 2.913015,1.441361 0.191639,0 0.02436,-0.481244 -0.579436,-1.666995 l -0.848844,-1.667006 -0.556033,0.287532 c -0.460682,0.238218 -0.735071,0.252323 -1.60016,0.08222 -0.574275,-0.112902 -1.573496,-0.294127 -2.220493,-0.402625 -1.701126,-0.285288 -3.930283,-1.191123 -5.587731,-2.270609 -2.965758,-1.931569 -6.2144,-5.820738 -7.134609,-8.541319 -0.831692,-2.458866 -0.672663,-5.584462 0.396349,-7.789861 0.850724,-1.755072 2.072904,-2.862297 4.396751,-3.983181 1.474791,-0.711366 2.041215,-1.086863 2.271054,-1.505579 0.630237,-1.148161 1.043213,-1.490228 2.7779,-2.300849 2.584542,-1.20775 2.894768,-1.179627 6.372424,0.577665 3.727125,1.883379 4.301494,2.5374 5.5776,6.351165 0.794375,2.374076 1.017165,4.221317 0.782292,6.486347 -0.306523,2.956032 -0.782574,4.293549 -2.37995,6.686761 l -0.837845,1.255261 0.514328,2.102164 c 0.282877,1.156179 0.575635,2.218869 0.650569,2.361524 0.08179,0.155621 0.262159,-0.3289 0.451281,-1.212408 0.173262,-0.809473 0.642847,-2.520969 1.043501,-3.803317 0.400656,-1.282349 0.899322,-3.016486 1.10815,-3.853645 0.20883,-0.83718 0.642432,-2.210178 0.963566,-3.051164 l 0.583888,-1.528982 -0.301786,-1.891732 C 60.434713,76.270675 60.12739,73.992472 59.91775,72.248482 59.708115,70.50449 59.448248,68.9097 59.34028,68.704528 59.232309,68.499421 58.635527,67.911796 58.014095,67.398856 56.740603,66.347708 54.713658,64.00165 53.671799,62.372965 52.851045,61.089918 50.927277,56.60733 50.625522,55.274804 50.509366,54.761865 50.28434,53.31287 50.12546,52.054816 c -0.596679,-4.724783 0.315918,-8.408844 3.327106,-13.431203 2.336644,-3.897268 3.306948,-4.916656 6.621609,-6.95651 1.168724,-0.719233 1.676095,-0.929501 2.135821,-0.885138 0.579226,0.05582 0.600988,0.08754 0.552789,0.804321 -0.0276,0.410343 -0.06471,1.921187 -0.08247,3.35743 -0.02883,2.330517 0.03355,2.9122 0.580012,5.40919 0.769787,3.517458 0.95492,4.109545 2.216184,7.087907 1.428126,3.37238 1.904416,4.827823 2.07533,6.341797 0.321637,2.849123 -0.687064,7.513474 -2.426464,11.220266 -0.771334,1.643762 -1.529539,5.187525 -1.769731,8.271485 -0.137274,1.762577 -0.155354,1.760738 1.046927,0.105935 0.987561,-1.359295 2.872771,-3.516125 5.228137,-5.981419 0.980139,-1.025879 2.155341,-2.354475 2.611561,-2.952418 0.456218,-0.597943 1.052165,-1.375597 1.324322,-1.728089 0.313536,-0.406113 0.609263,-1.169539 0.807166,-2.083729 0.171783,-0.793559 0.479578,-2.114286 0.683977,-2.934993 0.263866,-1.059481 0.40208,-2.417719 0.476612,-4.683827 0.09783,-2.974195 0.07977,-3.228319 -0.265066,-3.730474 -0.362913,-0.528478 -1.670511,-2.786234 -2.695073,-4.653438 -0.713958,-1.301147 -1.042019,-2.744304 -1.269529,-5.584652 -0.106818,-1.333648 -0.438141,-3.97762 -0.736262,-5.875506 -0.29812,-1.897883 -0.63411,-4.114047 -0.746647,-4.924816 -0.129746,-0.93468 -0.476922,-2.111473 -0.948749,-3.215822 -1.200571,-2.810011 -0.933365,-4.375194 1.066245,-6.245595 1.217723,-1.139039 1.963432,-1.375032 4.344911,-1.375032 1.6854,0 2.084142,0.06184 2.859521,0.443597 1.963827,0.966841 3.75617,3.414907 4.884211,6.671089 1.270378,3.66704 1.276624,7.293437 0.01966,11.459967 -0.562233,1.863799 -0.651827,2.443686 -0.718047,4.647562 -0.06805,2.264713 -0.145733,2.74329 -0.772032,4.756375 -0.383003,1.23105 -0.899632,2.683915 -1.148068,3.228572 -0.896261,1.964916 -1.223388,5.016821 -0.863462,8.055572 l 0.121436,1.02533 0.746094,-0.931444 c 0.410354,-0.512283 1.722641,-1.93895 2.916192,-3.170361 2.373194,-2.448463 3.643083,-4.324421 4.1671,-6.15591 0.176118,-0.615537 0.499217,-1.580792 0.718011,-2.14503 0.846969,-2.184192 0.595631,-4.936468 -0.878128,-9.615918 -1.489179,-4.728399 -1.955622,-6.802825 -2.245865,-9.988114 -0.146028,-1.602677 0.319476,-5.132605 0.938089,-7.113419 1.416869,-4.536873 4.243182,-8.223242 6.841021,-8.9227706 2.15193,-0.579453 5.138905,0.7672306 6.1833,2.7877486 0.547428,1.059069 1.239638,4.129844 1.437233,6.375806 0.332144,3.775427 -0.426782,10.562258 -1.550189,13.862681 -0.213944,0.628519 -1.55121,3.450999 -2.97169,6.272167 -1.420501,2.821189 -2.713804,5.505674 -2.87402,5.965562 l -0.291308,0.836143 0.665937,-0.645456 c 0.786848,-0.762642 1.909478,-2.370945 3.971706,-5.689936 0.828641,-1.333647 2.068375,-3.123036 2.754959,-3.976435 1.434481,-1.782981 4.170461,-4.285956 6.052941,-5.537433 1.23653,-0.822041 3.26119,-1.770825 3.77887,-1.770825 0.13427,0 0.57332,-0.167892 0.97575,-0.373043 0.40244,-0.205109 0.86391,-0.373044 1.02549,-0.373044 0.48825,0 3.339,-1.019345 5.22306,-1.867583 1.93142,-0.869576 3.08094,-1.045397 3.41757,-0.522751 0.14489,0.224962 0.14534,0.436986 10e-4,0.746107 -0.11046,0.237502 -0.73108,1.690852 -1.37906,3.229673 -1.98309,4.709432 -5.16139,11.261729 -6.28108,12.948882 -2.73787,4.125445 -7.67768,7.725283 -10.96272,7.988986 -0.96536,0.0774 -1.346437,0.0043 -2.615711,-0.507548 -2.604326,-1.048653 -4.204297,-0.514504 -5.874983,1.961342 -0.638876,0.946774 -1.464539,1.825336 -2.578562,2.743735 -0.901317,0.743041 -1.968545,1.625767 -2.371616,1.961597 l -0.732858,0.610587 0.784103,-0.376828 c 1.247637,-0.599614 2.6576,-1.08849 4.065515,-1.409665 0.718112,-0.163876 1.880865,-0.471157 2.583893,-0.68299 2.436569,-0.734181 4.630388,-0.170429 5.795759,1.489488 0.46536,0.662839 0.57489,1.025351 0.63588,2.10458 0.1861,3.293551 -2.059573,6.833761 -6.81817,10.748537 -2.216179,1.823201 -3.609858,2.704341 -4.807867,3.039768 l -0.855716,0.239595 0.70723,0.320286 c 0.874591,0.396092 1.32073,0.88463 1.649398,1.806178 0.33953,0.952042 0.332691,1.972908 -0.01882,2.816199 -0.276728,0.663791 -2.411041,3.545498 -4.381754,5.916146 -0.653069,0.785607 -1.708448,2.679539 -3.54121,6.354909 -2.863808,5.743006 -3.765195,7.070784 -5.835107,8.595327 -2.38544,1.75693 -3.931642,2.27002 -7.527676,2.497934 -2.683593,0.17002 -3.085372,0.12203 -3.885657,-0.464274 -0.350765,-0.25697 -0.462175,-0.17234 -1.86524,1.416164 -0.820703,0.92923 -1.585341,1.78902 -1.699192,1.91067 -0.129921,0.13893 -0.246444,1.64243 -0.312924,4.03781 -0.113317,4.08304 -0.269581,4.98823 -1.228569,7.11679 -0.291493,0.64699 -0.911294,1.73155 -1.377334,2.41011 -0.466039,0.67859 -0.877392,1.39204 -0.914114,1.58544 -0.116951,0.61604 -0.928322,0.53748 -1.582209,-0.15308 z m 1.423602,-2.43292 c 1.027397,-1.55958 1.857676,-3.83404 2.07445,-5.68272 0.105669,-0.90108 0.165165,-3.14714 0.132224,-4.99124 -0.05766,-3.2284 -0.04604,-3.35563 0.313163,-3.42635 0.600043,-0.11819 1.609217,-1.08962 2.611335,-2.513924 0.512939,-0.72903 1.156208,-1.450755 1.429483,-1.603823 0.479534,-0.26863 0.526344,-0.251164 1.342056,0.500733 l 0.845194,0.77908 2.481681,-0.11058 c 3.478759,-0.15499 5.38932,-0.841536 7.492308,-2.692649 1.38231,-1.216758 2.314193,-2.724887 4.830473,-7.817497 1.597729,-3.233583 2.667826,-5.156948 3.342428,-6.007576 4.684909,-5.907349 4.804469,-6.102648 4.453509,-7.274048 -0.336045,-1.121603 -0.682479,-1.242955 -3.647743,-1.277802 -2.10629,-0.02474 -2.936008,0.04694 -4.290049,0.370992 -4.32547,1.034907 -8.389145,3.990412 -11.254178,8.185107 -1.899366,2.780867 -2.867192,5.175894 -4.574063,11.319241 -0.559936,2.015329 -1.173693,3.448382 -1.480576,3.457009 -0.123443,0.0043 -0.670541,0.67101 -1.21579,1.483463 -1.01212,1.5081 -1.521147,1.886244 -2.00197,1.4872 -0.568002,-0.4714 -0.284538,-7.430038 0.402403,-9.878351 0.396943,-1.414758 5.09766,-10.888685 6.478382,-13.056679 1.627673,-2.555755 4.039812,-6.565873 4.039812,-6.716109 0,-0.07063 0.497383,-0.602914 1.105295,-1.182755 0.70645,-0.673835 1.264807,-1.054278 1.54733,-1.054278 0.24312,0 1.057483,-0.368286 1.809695,-0.818403 1.142185,-0.683476 1.482153,-0.803051 2.062101,-0.725258 0.681473,0.09135 0.69659,0.07993 0.809738,-0.617375 0.06341,-0.390764 0.09048,-0.735303 0.06018,-0.765626 -0.185634,-0.185654 -2.513047,0.813308 -2.85858,1.226907 -0.333637,0.399369 -0.468326,0.450286 -0.746096,0.282012 -0.91475,-0.554152 -0.235843,-1.916323 1.667247,-3.345207 1.627471,-1.22194 3.256279,-2.691591 6.387367,-5.763225 1.64141,-1.610227 3.766874,-3.524626 4.723255,-4.254178 1.358495,-1.036324 1.843473,-1.53351 2.217055,-2.272852 0.263002,-0.520489 1.145837,-1.63135 1.961852,-2.468573 1.949304,-1.999952 1.902608,-2.575418 -0.06871,-0.8468 -0.783945,0.68743 -1.817305,1.585614 -2.296346,1.995979 -0.479042,0.410341 -0.900622,0.77387 -0.936843,0.807829 -0.03622,0.03405 -0.240913,-0.03191 -0.454875,-0.146535 -0.544043,-0.29117 -0.487216,-0.819186 0.240508,-2.234707 0.346242,-0.673496 0.825187,-1.770107 1.064324,-2.43694 0.239136,-0.666813 1.092567,-2.449839 1.896499,-3.962248 2.686711,-5.054415 4.592264,-9.138564 4.982944,-10.679877 0.631621,-2.491959 0.956787,-5.231994 1.062456,-8.953144 0.106691,-3.7584 0.0096,-4.599324 -0.874817,-7.576925 -0.639131,-2.151649 -1.951219,-3.148198 -4.145027,-3.148198 -2.709911,0 -5.988832,4.915053 -6.953471,10.42314 -0.574608,3.281021 -0.237775,6.424591 1.221527,11.400157 1.401948,4.779994 1.6369,5.723555 1.866192,7.494547 0.123779,0.956122 0.341386,2.110056 0.48355,2.564341 0.374663,1.197196 0.332698,2.480074 -0.0991,3.029004 -0.196672,0.249999 -0.702442,1.163639 -1.123957,2.030274 -1.336517,2.747902 -1.914987,3.54702 -4.236522,5.852436 -1.247044,1.238388 -2.684499,2.755238 -3.194345,3.370752 -0.509846,0.615537 -1.108228,1.287023 -1.329737,1.492193 -0.221511,0.205109 -0.544374,0.51994 -0.717478,0.699462 -0.424211,0.439968 -1.105203,0.412606 -1.355161,-0.05455 -0.112118,-0.209548 -0.26553,-1.195739 -0.340928,-2.191656 l -0.137084,-1.810787 -0.23244,1.398943 c -0.539804,3.248787 -1.17322,5.699894 -1.671301,6.467379 -0.892592,1.375366 -2.656764,3.454001 -4.880038,5.749922 -2.944932,3.041165 -4.329228,4.692221 -5.742194,6.848733 -1.209418,1.845847 -1.518057,2.071721 -2.105022,1.540532 -0.292053,-0.264314 -0.302802,-0.215555 -0.154275,0.699462 0.190286,1.172224 0.140975,1.445358 -0.783839,4.340999 -1.783208,5.583362 -2.589444,8.356152 -2.982927,10.258812 -0.322028,1.557135 -0.537906,2.175417 -0.895485,2.564704 -0.259142,0.282117 -0.5854,0.512943 -0.725019,0.512943 -0.229687,0 0.0037,0.393318 1.223422,2.060274 0.193563,0.26457 0.199483,0.42623 0.02738,0.74777 -0.192526,0.35976 -0.327286,0.3975 -1.09449,0.30664 -0.481216,-0.0569 -1.523935,-0.36144 -2.317156,-0.67654 -0.793224,-0.31509 -1.502992,-0.570693 -1.57726,-0.567959 -0.07428,0.0021 0.895159,0.512329 2.154289,1.132449 1.455336,0.71675 2.405115,1.304214 2.607164,1.612554 0.278217,0.42463 0.318326,1.07979 0.321784,5.25603 l 0.004,4.77093 -0.71417,2.58579 c -0.651177,2.35771 -0.764234,3.47622 -0.351361,3.47622 0.07663,0 0.429616,-0.44066 0.784417,-0.97925 z m 8.333165,-19.662737 c -0.387765,-0.387765 -0.05392,-0.953713 1.041426,-1.765516 2.990889,-2.216678 6.966364,-6.55099 11.311704,-12.332738 1.374331,-1.828634 2.41331,-2.900461 4.18975,-4.32222 1.233885,-0.987523 1.85549,-1.074281 1.948555,-0.271907 0.04758,0.410068 -0.179459,0.685422 -1.414569,1.715593 -1.656906,1.381985 -2.604314,2.450937 -4.328489,4.883837 -2.207694,3.115151 -3.682985,4.838208 -6.559258,7.66086 -3.85467,3.782781 -5.593349,5.027876 -6.189119,4.432091 z M 89.398223,35.696462 c -0.641613,-0.773088 -0.689907,-5.867997 -0.09395,-9.912118 0.782062,-5.307125 2.29412,-9.813701 3.574095,-10.652373 0.497806,-0.32617 1.268316,-0.198173 1.435893,0.238545 0.144696,0.377097 -0.191553,1.013979 -0.535356,1.013979 -0.435217,0 -1.401673,2.310166 -2.057206,4.917392 -0.889581,3.538134 -1.239557,6.636241 -1.227531,10.866566 0.0086,3.077067 -0.03058,3.593095 -0.28116,3.689264 -0.432632,0.165989 -0.564906,0.139769 -0.81478,-0.161338 z M 40.659476,109.33931 c 2.051132,-1.01461 3.048048,-1.85358 4.555269,-3.83354 0.618798,-0.81291 1.604361,-1.99744 2.190141,-2.6323 0.585778,-0.63486 1.583047,-1.79544 2.216155,-2.57906 1.257641,-1.556624 2.161582,-2.398994 2.574373,-2.398994 0.14601,0 0.265475,-0.0839 0.265475,-0.186497 0,-0.102541 -0.07484,-0.1865 -0.166349,-0.1865 -0.0915,0 -0.609579,-0.39869 -1.151306,-0.885976 l -0.984953,-0.885986 -1.808272,-0.0634 c -1.585233,-0.05563 -2.024134,0.0043 -3.558421,0.484095 -1.095156,0.342557 -2.806145,0.672776 -4.571767,0.882348 -2.821152,0.334856 -2.822058,0.334835 -5.540816,-0.08595 -6.295305,-0.9742 -9.295321,-0.0085 -10.01935,3.22751 -0.260588,1.16444 -0.06404,2.06786 0.717731,3.29887 1.137418,1.79106 3.213109,3.52128 6.006924,5.0072 2.140963,1.13869 3.097026,1.49418 4.569219,1.69895 1.831336,0.25473 2.814155,0.0748 4.705951,-0.86085 z m -2.747449,-6.60412 c -0.564233,-0.0973 -1.94621,-0.3946 -3.071059,-0.66067 -1.582534,-0.37435 -2.405316,-0.46924 -3.637215,-0.41955 -1.51837,0.0614 -1.594725,0.0452 -1.650098,-0.34368 -0.167215,-1.17483 2.447554,-1.423754 6.120085,-0.58262 3.160874,0.72395 4.214358,0.80282 5.622121,0.4209 1.834961,-0.4978 2.118619,-0.47196 2.118619,0.19285 0,0.45917 -0.13499,0.63039 -0.775579,0.98376 -0.909889,0.50192 -3.092439,0.69074 -4.726874,0.40892 z m 24.916008,-7.078052 c 0.607436,-0.656512 0.93005,-1.513332 1.759554,-4.673182 1.659835,-6.322813 3.567901,-9.928257 7.162098,-13.533297 2.11084,-2.117225 5.997074,-4.417102 8.439124,-4.99428 l 1.090016,-0.257633 -1.042951,-0.472678 c -1.498028,-0.678951 -2.067381,-1.442482 -2.483344,-3.330281 l -0.109113,-0.495179 -1.967308,1.122069 -1.967311,1.122069 -1.219046,1.891183 c -3.175559,4.926445 -4.867061,7.883958 -7.215726,12.616312 -1.435212,2.891814 -2.676637,5.646845 -2.845828,6.3156 -0.29656,1.172157 -0.658335,5.37538 -0.489963,5.692515 0.04786,0.0901 0.170537,0.0053 0.272667,-0.186501 0.102138,-0.192638 0.379829,-0.560225 0.617126,-0.816696 z m -7.649971,-3.151404 c -0.531105,-1.886492 -0.852069,-2.434346 -0.851843,-1.454051 1.37e-4,0.577031 1.143027,3.486313 1.369573,3.486313 0.02994,0 -0.203057,-0.914515 -0.51773,-2.032262 z m -3.696425,-1.136597 c 0.333411,-0.203212 0.606203,-0.455534 0.606203,-0.560565 0,-0.105095 0.251808,-0.454471 0.559572,-0.77651 0.531712,-0.556374 0.559571,-0.664279 0.559571,-2.167087 v -1.581533 l -0.82253,0.758183 c -1.304832,1.202737 -3.776828,2.273699 -5.248196,2.273699 -1.127693,0 -2.000973,-1.17988 -1.352924,-1.827937 0.319002,-0.318997 0.847231,-0.276623 1.04914,0.08415 0.441655,0.78918 3.976753,-0.744755 5.00841,-2.173239 0.333403,-0.461641 0.721644,-0.972676 0.862756,-1.135642 0.640696,-0.739892 -1.443077,-6.748865 -3.321962,-9.579527 -1.390161,-2.094367 -3.884067,-3.806999 -5.226468,-3.589162 -1.086936,0.176352 -4.15429,1.770106 -4.962654,2.578465 -1.35706,1.357054 -2.219784,4.103729 -1.943396,6.187226 0.428371,3.229227 3.069035,7.053777 6.496351,9.408885 1.704204,1.171049 1.934881,1.289642 3.761616,1.934027 1.809098,0.638142 3.11153,0.69271 3.974511,0.16662 z m 4.214057,-6.017435 c 1.130685,-1.90461 1.479655,-3.244156 1.567098,-6.0154 0.04207,-1.333649 0.0062,-2.611261 -0.07992,-2.839122 -0.136428,-0.361372 -0.273528,-0.186289 -1.072552,1.370526 -0.503871,0.981685 -1.020948,1.825082 -1.149064,1.874244 -0.321731,0.123483 -1.008182,-0.270362 -1.008182,-0.578405 0,-0.139136 0.545582,-1.34348 1.212405,-2.676409 0.666823,-1.332928 1.212406,-2.519024 1.212406,-2.635746 0,-0.415798 -1.066851,-2.545899 -1.576545,-3.147776 -0.583522,-0.689058 -5.427471,-3.220284 -6.120854,-3.198484 -0.503452,0.01481 -3.548879,1.494859 -3.62691,1.761437 -0.03045,0.104031 0.364203,0.338067 0.876984,0.520213 1.243033,0.441468 3.045905,1.832061 4.158783,3.207703 0.875581,1.082337 2.035048,3.276528 3.147264,5.955918 0.590407,1.422331 1.244703,4.34895 1.410265,6.30803 0.05854,0.692482 0.162734,1.259047 0.231577,1.259047 0.06885,0 0.436603,-0.524611 0.817242,-1.165776 z m 5.908035,-15.32685 c -0.265716,-0.7423 -0.399067,0.108052 -0.254036,1.619912 l 0.147383,1.536261 0.117462,-1.398944 c 0.0646,-0.769409 0.05977,-1.560155 -0.01073,-1.757229 z M 85.1286,71.035995 c 0.472653,0 0.437119,-0.244628 -0.06808,-0.468704 -1.087917,-0.482576 -1.582602,-2.152707 -1.271518,-4.292809 0.324603,-2.233101 0.875957,-3.547019 1.704376,-4.061714 0.445742,-0.276917 1.273217,0.0063 1.505294,0.516153 0.29456,0.646494 0.07866,1.032647 -0.577355,1.032647 -0.510505,0 -0.582498,0.08183 -0.842575,0.9576 -0.47147,1.587603 -0.560577,3.142406 -0.225987,3.943196 0.160893,0.385097 0.422235,0.749913 0.58075,0.810749 0.342075,0.131308 0.381414,0.835488 0.0644,1.152517 -0.3505,0.350504 0.02353,0.286582 1.968718,-0.336525 1.943585,-0.622599 2.431127,-0.912606 4.920332,-2.92681 3.169072,-2.564339 5.324193,-5.244765 6.022754,-7.490764 0.450162,-1.447323 0.462863,-2.103733 0.05723,-2.958548 -0.357493,-0.753339 -1.130311,-1.285648 -2.105808,-1.450474 -0.742556,-0.125396 -4.889732,0.864393 -7.133274,1.702566 -1.809729,0.676118 -2.472885,1.185104 -5.638977,4.328143 -3.061213,3.038922 -3.28026,3.372614 -3.661711,5.578332 -0.243637,1.408818 -0.111261,2.349884 0.43579,3.09802 0.387933,0.530534 2.144932,1.076607 3.099901,0.963438 0.450319,-0.05328 0.974917,-0.09705 1.165774,-0.09705 z M 62.138502,67.141899 c 1.911188,-2.404607 3.661455,-7.514129 3.881083,-11.329944 0.131079,-2.2774 -0.07965,-3.09447 -1.990615,-7.718392 -1.428652,-3.456878 -1.461862,-3.562497 -2.258182,-7.181178 -0.436586,-1.983966 -0.599289,-3.269846 -0.677237,-5.352287 l -0.102595,-2.740965 -1.047499,0.668864 c -0.576124,0.367883 -1.312965,0.887865 -1.637424,1.155501 -2.187346,1.804379 -5.785929,8.356656 -6.486226,11.810108 -0.452338,2.230667 -0.340887,5.353663 0.294829,8.261548 0.221684,1.014017 1.915647,5.151873 2.598097,6.346407 0.789408,1.381732 3.153957,4.146168 4.623295,5.405193 0.804303,0.689185 1.618257,1.516575 1.808782,1.838637 l 0.346411,0.585574 0.12922,-0.629935 c 0.07107,-0.346444 0.304198,-0.850059 0.518054,-1.119131 z m -1.721167,-1.375198 c -3.103775,-5.025299 -3.422372,-5.81653 -3.956036,-9.824895 -0.490562,-3.684589 -0.200963,-10.68656 0.495839,-11.988533 0.226457,-0.423156 1.070589,-0.44206 1.229649,-0.0275 0.06514,0.169796 -0.02292,1.491792 -0.195741,2.93774 -0.359727,3.009934 -0.389422,5.116034 -0.11334,8.038213 0.350163,3.70618 0.906573,5.44408 2.598664,8.116746 1.161607,1.834745 1.430144,2.824107 0.829133,3.054738 -0.478087,0.183539 -0.614707,0.136386 -0.888182,-0.306457 z m 20.500179,-3.35743 0.547837,-0.606213 -0.606201,0.54783 c -0.565068,0.510677 -0.691938,0.664573 -0.547838,0.664573 0.0321,0 0.304893,-0.272795 0.606202,-0.60619 z m 3.718742,-3.702712 c 1.147646,-1.183263 1.276853,-1.36196 0.559575,-0.773893 -1.241365,1.017761 -3.817809,3.678669 -2.797858,2.889595 0.410351,-0.317473 1.41758,-1.269535 2.238283,-2.115702 z m 1.982295,-1.799751 c 0.232012,-0.295841 0.225416,-0.302437 -0.07041,-0.07041 -0.179523,0.140827 -0.326416,0.287701 -0.326416,0.326418 0,0.153515 0.153174,0.05476 0.396839,-0.255983 z m -8.745224,-8.719996 c 0.315641,-0.718111 0.861689,-2.228954 1.213445,-3.35743 0.561067,-1.79994 0.651404,-2.372235 0.73605,-4.663083 0.08578,-2.321358 0.171022,-2.849544 0.767696,-4.756374 0.654541,-2.091766 0.671399,-2.221429 0.679011,-5.222669 0.0078,-3.064782 0.0051,-3.085588 -0.663036,-4.981084 -1.64304,-4.661946 -3.838084,-6.662802 -6.926161,-6.313425 -0.610309,0.06905 -1.332649,0.209571 -1.6052,0.312278 -1.048535,0.395111 -2.454044,2.194937 -2.454044,3.142521 0,0.210204 0.334859,1.165954 0.744131,2.123894 0.466796,1.092571 0.821773,2.291102 0.952447,3.215823 0.114567,0.810768 0.451845,3.012933 0.749501,4.893711 0.297653,1.880759 0.627109,4.629335 0.73212,6.107955 0.237324,3.341552 0.56628,4.434756 2.128403,7.073081 0.668154,1.128455 1.216381,2.14205 1.21828,2.252406 0.0019,0.110382 0.213291,0.397763 0.46976,0.638711 0.334992,0.314704 0.47418,0.65216 0.494259,1.198275 0.02331,0.633998 0.04137,0.667302 0.108703,0.200669 0.0444,-0.307767 0.339001,-1.147125 0.654639,-1.865236 z M 76.01417,41.168834 c -0.147784,-0.147805 -0.179607,-1.209883 -0.107595,-3.590577 0.07565,-2.500819 0.02293,-4.060404 -0.202549,-5.992057 -0.539932,-4.625253 -1.240539,-6.823104 -2.587609,-8.117485 -0.637383,-0.612455 -0.704581,-0.753655 -0.521483,-1.095777 0.504437,-0.94255 1.812114,-0.181933 2.766868,1.609372 1.042622,1.956161 1.734051,5.239691 2.085837,9.90548 0.203183,2.694973 -0.01692,6.790899 -0.388909,7.239198 -0.254207,0.30631 -0.759852,0.326566 -1.044563,0.04187 z m 26.7183,6.720912 c 2.39091,-0.894569 6.19877,-4.122824 7.90002,-6.697568 1.17925,-1.784758 7.23538,-14.297375 7.02374,-14.511807 -0.0305,-0.03087 -0.83503,0.294805 -1.78785,0.723843 -0.95279,0.429013 -2.53627,1.012937 -3.51883,1.297573 -4.54147,1.315694 -5.95621,2.059329 -9.01523,4.738718 -2.26432,1.98327 -3.588364,3.622464 -5.995149,7.42202 -1.303142,2.057278 -1.524979,2.7383 -1.484281,4.556659 0.02851,1.275034 0.208732,1.74101 0.675818,1.747839 0.390574,0.0063 1.280496,0.29988 3.02746,1.00076 0.868522,0.34843 1.692892,0.276219 3.174302,-0.278037 z m -6.356553,-3.002807 c -0.154611,-0.487142 -0.13673,-0.503192 3.282666,-2.948675 2.800697,-2.002997 6.744037,-5.683632 8.214707,-7.66745 0.81995,-1.106063 1.04249,-1.296982 1.45581,-1.249027 0.68129,0.0791 0.72446,0.711897 0.11906,1.744945 -1.0813,1.845105 -5.54463,6.057395 -8.89494,8.394633 -0.855035,0.596506 -1.830331,1.320749 -2.167304,1.609445 -0.783944,0.671592 -1.814776,0.731158 -2.009989,0.116089 z"
       />
</svg>
