<?xml version="1.0" encoding="UTF-8" standalone="no"?>
<svg
   width="1536"
   height="1536"
   version="1.1"
   id="svg4"
   sodipodi:docname="envelope-square-modified.svg"
   inkscape:version="1.2.2 (b0a8486541, 2022-12-01)"
   xmlns:inkscape="http://www.inkscape.org/namespaces/inkscape"
   xmlns:sodipodi="http://sodipodi.sourceforge.net/DTD/sodipodi-0.dtd"
   xmlns="http://www.w3.org/2000/svg"
   xmlns:svg="http://www.w3.org/2000/svg">
  <sodipodi:namedview
     id="namedview5"
     pagecolor="#ffffff"
     bordercolor="#666666"
     borderopacity="1.0"
     inkscape:showpageshadow="2"
     inkscape:pageopacity="0.0"
     inkscape:pagecheckerboard="0"
     inkscape:deskcolor="#d1d1d1"
     showgrid="false"
     inkscape:zoom="0.1702474"
     inkscape:cx="267.25813"
     inkscape:cy="769.46845"
     inkscape:window-width="1366"
     inkscape:window-height="703"
     inkscape:window-x="0"
     inkscape:window-y="0"
     inkscape:window-maximized="1"
     inkscape:current-layer="svg4" />
  <defs
     id="defs8" />
  <path
     d="M 1536.768,1328.432 V 673.778 C 1508.2395,705.3095 1476.708,733.838 1440.672,756.3605 1299.531,849.4535 1153.8855,936.5405 1014.246,1032.6365 943.6755,1082.186 856.5885,1136.24 768,1136.24 679.4115,1136.24 592.3245,1082.186 521.754,1032.6365 382.1145,936.5405 234.9675,850.955 95.328,754.859 60.7935,732.3365 33.7665,699.3035 -0.768,673.778 V 1328.432 C -0.768,1408.0115 63.7965,1472.576 143.376,1472.576 H 1392.624 C 1472.2035,1472.576 1536.768,1408.0115 1536.768,1328.432 Z M 1536.768,468.0725 C 1536.768,386.9915 1476.708,319.424 1392.624,319.424 H 143.376 C 63.7965,319.424 -0.768,383.9885 -0.768,463.568 -0.768,544.649 83.316,633.2375 146.379,675.2795 278.511,763.868 415.1475,846.4505 547.2795,933.5375 604.3365,971.075 698.931,1040.144 768,1040.144 837.069,1040.144 931.6635,971.075 988.7205,933.5375 1122.354,846.4505 1255.9875,760.865 1389.621,672.2765 1448.1795,633.2375 1536.768,543.1475 1536.768,468.0725 Z"
     id="path2"
     style="stroke-width:1.5015" />
</svg>
